src/test_run_dir/FlasherSpec221185163/Flasher2.vcd
$date
2021-02-21T02:50+0000
$end
$version
0.2
$end
$comment

$end
$timescale 1ns  $end
$scope module Flasher2 $end
 $var wire 2 ! stateReg $end
 $var wire 2 " _GEN_16 $end
 $var wire 1 # cntDone $end
 $var wire 1 $ cntLoad $end
 $var wire 2 % _GEN_2 $end
 $var wire 2 & cntReg $end
 $var wire 3 ' _GEN_19 $end
 $var wire 1 ( cntDecr $end
 $var wire 2 ) _GEN_5 $end
 $var wire 2 * _GEN_13 $end
 $var wire 2 + _GEN_8 $end
 $var wire 1 , timerDone $end
 $var wire 1 - timerLoad $end
 $var wire 1 . timerSelect $end
 $var wire 1 / io_start $end
 $var wire 3 0 _GEN_18 $end
 $var wire 2 1 _GEN_1 $end
 $var wire 1 2 _GEN_4 $end
 $var wire 1 3 clock $end
 $var wire 3 4 timerReg $end
 $var wire 2 5 _GEN_17 $end
 $var wire 3 6 _GEN_20 $end
 $var wire 1 7 _GEN_6 $end
 $var wire 2 8 _GEN_0 $end
 $var wire 1 9 _GEN_9 $end
 $var wire 1 : reset $end
 $var wire 1 ; io_light $end
 $var wire 2 < _GEN_3 $end
$upscope $end
$enddefinitions $end
$dumpvars
b00 &
0;
b00 )
b00 *
b00 "
07
0#
b000 '
09
b00 %
0:
02
03
b00 <
b00 5
0-
b00 !
0.
0/
b00 8
b00 1
0(
b000 4
b000 6
b00 +
0,
0$
b000 0
$end
#0
1-
b01 <
b10 "
1.
1#
b10 5
b101 '
1$
b101 6
1:
17
1,
#1
13
#6
03
#11
13
#16
03
#21
13
#26
03
#31
13
#36
03
#41
13
#46
03
0:
#51
13
b100 0
b00 <
b101 4
b10 &
0#
0,
#56
03
#61
13
#66
03
b01 8
b01 *
1/
#71
13
0-
b01 <
b01 %
0.
b011 '
b100 6
07
b01 )
b01 !
b01 1
0$
b01 +
1;
#76
03
0/
#81
13
b011 0
b100 4
b011 6
#86
03
#91
13
b010 0
b011 4
b010 6
#96
03
#101
13
b001 0
b010 4
b001 6
#106
03
#111
13
b000 0
b001 4
b000 6
#116
03
#121
13
1-
b10 %
b000 4
b10 1
b10 *
b011 6
b10 +
1,
#126
03
#131
13
0-
b10 <
b011 4
1.
b101 '
b010 6
17
b10 )
b10 !
b010 0
b10 8
0,
0;
#136
03
#141
13
b001 0
b010 4
b001 6
#146
03
#151
13
b000 0
b001 4
b000 6
#156
03
#161
13
1-
b01 <
b000 4
b01 5
12
b01 *
19
b101 6
b01 +
1(
1,
b01 )
#166
03
#171
13
0-
b01 %
b101 4
0.
b01 &
b011 '
b100 6
0(
07
b01 !
b100 0
b01 "
b01 1
b01 8
02
09
0,
1;
#176
03
#181
13
b011 0
b100 4
b011 6
#186
03
#191
13
b010 0
b011 4
b010 6
#196
03
#201
13
b001 0
b010 4
b001 6
#206
03
#211
13
b000 0
b001 4
b000 6
#216
03
#221
13
1-
b10 %
b000 4
b10 1
b10 *
b011 6
b10 +
1,
#226
03
#231
13
0-
b10 <
b011 4
1.
b101 '
b010 6
17
b10 )
b10 !
b010 0
b10 8
0,
0;
#236
03
#241
13
b001 0
b010 4
b001 6
#246
03
#251
13
b000 0
b001 4
b000 6
#256
03
#261
13
1-
b01 <
b000 4
b00 5
12
b01 *
19
b101 6
b01 +
1(
1,
b01 )
#266
03
#271
13
0-
b01 %
b101 4
0.
b00 &
b011 '
b100 6
0(
07
b01 !
b100 0
b00 "
b01 1
b01 8
1#
02
09
0,
1;
#276
03
#281
13
b011 0
b100 4
b011 6
#286
03
#291
13
b010 0
b011 4
b010 6
#296
03
#301
13
b001 0
b010 4
b001 6
#306
03
#311
13
b000 0
b001 4
b000 6
#316
03
#321
13
1-
b00 %
b000 4
b00 *
b011 6
b00 +
1,
#326
03
#331
13
b00 <
b011 4
1.
b10 5
b101 '
b101 6
17
b00 )
b00 !
b010 0
b10 "
b00 1
b00 8
1$
0,
0;
#336
03
#341
13
b100 0
b101 4
b10 &
0#
