src/generated/fifo.FifoSpec1833793794/DoubleBufferFifo.vcd
$date
2021-02-21T02:50+0000
$end
$version
0.2
$end
$comment

$end
$timescale 1ns  $end
$scope module DoubleBufferFifo $end
 $var wire 16 . io_deq_bits $end
 $var wire 1 6 io_enq_ready $end
 $var wire 1 7 io_deq_valid $end
 $var wire 16 : io_enq_bits $end
 $var wire 1 G clock $end
 $var wire 1 O DoubleBuffer $end
 $var wire 1 Z io_deq_ready $end
 $var wire 1 [ reset $end
 $var wire 1 ] DoubleBuffer_1 $end
 $var wire 1 ` io_enq_valid $end
  $scope module DoubleBuffer_1 $end
   $var wire 16 ! io_enq_bits $end
   $var wire 2 % _GEN_3 $end
   $var wire 16 & io_deq_bits $end
   $var wire 2 ( _GEN_14 $end
   $var wire 16 ) _GEN_6 $end
   $var wire 1 * io_deq_ready $end
   $var wire 2 - _GEN_0 $end
   $var wire 16 0 _GEN_9 $end
   $var wire 1 3 io_enq_valid $end
   $var wire 1 4 reset $end
   $var wire 2 5 _GEN_11 $end
   $var wire 2 = _GEN_8 $end
   $var wire 2 > _GEN_2 $end
   $var wire 2 B _GEN_5 $end
   $var wire 16 D _GEN_13 $end
   $var wire 16 E shadowReg $end
   $var wire 1 H _T $end
   $var wire 2 J stateReg $end
   $var wire 16 K dataReg $end
   $var wire 2 L _GEN_10 $end
   $var wire 1 M io_deq_valid $end
   $var wire 16 N _GEN_4 $end
   $var wire 1 S io_enq_ready $end
   $var wire 16 T _GEN_7 $end
   $var wire 1 V clock $end
   $var wire 16 X _GEN_1 $end
   $var wire 16 \ _GEN_12 $end
  $upscope $end
  $scope module DoubleBuffer $end
   $var wire 16 " dataReg $end
   $var wire 1 # clock $end
   $var wire 2 $ _GEN_10 $end
   $var wire 16 ' _GEN_7 $end
   $var wire 16 + _GEN_1 $end
   $var wire 16 , _GEN_4 $end
   $var wire 16 / io_enq_bits $end
   $var wire 16 1 io_deq_bits $end
   $var wire 2 2 stateReg $end
   $var wire 1 8 io_enq_ready $end
   $var wire 16 9 _GEN_12 $end
   $var wire 2 ; _GEN_3 $end
   $var wire 1 < io_deq_valid $end
   $var wire 16 ? _GEN_6 $end
   $var wire 1 @ _T $end
   $var wire 16 A _GEN_9 $end
   $var wire 2 C _GEN_0 $end
   $var wire 16 F shadowReg $end
   $var wire 1 I reset $end
   $var wire 2 P _GEN_8 $end
   $var wire 2 Q _GEN_11 $end
   $var wire 2 R _GEN_2 $end
   $var wire 2 U _GEN_14 $end
   $var wire 1 W io_enq_valid $end
   $var wire 2 Y _GEN_5 $end
   $var wire 1 ^ io_deq_ready $end
   $var wire 16 _ _GEN_13 $end
  $upscope $end
$upscope $end
$enddefinitions $end
$dumpvars
b00 Y
b0000000000000000 +
b0000000000000000 _
0Z
b00 >
b0000000000000000 D
b00 U
07
b0000000000000000 '
0V
b0000000000000000 )
b0000000000000000 !
b00 %
b00 Q
03
b0000000000000000 :
b0000000000000000 K
0[
b00 2
0]
0H
b0000000000000000 0
0@
0W
b00 C
b0000000000000000 A
0<
b0000000000000000 ,
b00 =
b00 (
b0000000000000000 X
0S
b0000000000000000 .
06
b0000000000000000 &
b0000000000000000 E
0M
08
0#
b00 $
b0000000000000000 \
b0000000000000000 T
b0000000000000000 ?
0O
b00 P
b0000000000000000 "
b00 ;
0I
04
b0000000000000000 9
b00 R
b00 5
0`
b00 L
0G
b0000000000000000 /
0*
0^
b0000000000000000 N
b0000000000000000 F
b00 J
b0000000000000000 1
b00 B
b00 -
$end
#0
14
1@
18
1S
1H
16
1^
1[
1I
b01 P
#1
1G
1V
1#
#6
0G
0V
0#
#11
1G
1V
1#
#16
0G
0V
0#
#21
1G
1V
1#
#26
0G
0V
0#
#31
1G
1V
1#
#36
0G
0V
0#
#41
1G
1V
1#
#46
04
0G
0V
0#
b0000000010101011 :
0[
0I
b0000000010101011 /
#51
1G
1V
1#
#56
1`
b01 C
b01 U
0G
0V
0#
b01 Y
1W
b0000000100100011 +
b0000000100100011 :
b0000000100100011 /
b0000000100100011 ,
b01 ;
#61
13
b10 B
b01 -
1<
b01 Q
b0000000100100011 X
b01 R
b01 (
b0000000100100011 )
b0000000100100011 !
b0000000100100011 "
b0000000100100011 1
0@
1G
1V
1#
b01 2
b0000000100100011 9
b01 $
b0000000100100011 A
#66
b00 Q
0`
b00 U
b00 R
0G
0V
0#
b00 Y
0W
b0000000010101011 :
b0000000010101011 /
b00 ;
#71
03
b01 B
0<
b01 %
b00 C
b0000000100100011 .
b0000000100100011 &
b01 J
b01 5
b0000000100100011 K
b01 =
b01 L
17
b01 >
1M
b0000000000000000 )
b0000000100100011 \
b0000000100100011 T
b0000000100100011 0
b0000000100100011 N
1@
1G
1V
1#
b00 2
0H
b00 $
#76
0G
0V
0#
#81
1G
1V
1#
#86
0G
0V
0#
#91
1G
1V
1#
#96
0G
0V
0#
#101
1G
1V
1#
#106
0G
0V
0#
#111
1G
1V
1#
#116
0G
0V
0#
#121
1G
1V
1#
#126
0G
0V
0#
#131
1G
1V
1#
#136
0G
0V
0#
#141
1G
1V
1#
#146
0G
0V
0#
#151
1G
1V
1#
#156
0G
0V
0#
#161
1G
1V
1#
#166
0G
0V
0#
#171
1G
1V
1#
#176
0G
0V
0#
#181
1G
1V
1#
#186
b0000000000000000 T
b00 B
b00 %
0G
0V
0#
b00 5
1*
1Z
b00 (
b00 >
#191
b00 -
b00 J
1G
1V
1#
1H
b00 L
07
0M
#196
b0000000100100011 T
0G
0V
0#
0*
0Z
b00 =
#201
1G
1V
1#
#206
1`
b01 C
b01 U
0G
0V
0#
b01 Y
1W
b0000000000000001 +
b0000000000000001 :
b0000000000000001 /
b0000000000000001 ,
b01 ;
#211
13
b10 B
b01 -
1<
b01 Q
b0000000000000001 X
b01 R
b01 (
b0000000000000001 )
b0000000000000001 !
b0000000000000001 "
b0000000000000001 1
0@
1G
1V
1#
b01 2
b0000000000000001 9
b01 $
b0000000000000001 A
#216
0G
0V
0#
b0000000000000010 9
b0000000000000010 +
b0000000000000010 :
b0000000000000010 /
b0000000000000010 ,
#221
b01 %
b0000000000000010 X
b0000000000000001 .
b0000000000000001 &
b01 J
b0000000000000010 D
b10 5
b0000000000000001 K
b01 =
b01 L
17
b10 (
b01 >
1M
b0000000000000010 )
b0000000000000001 \
b0000000000000010 !
b0000000000000001 T
b0000000000000001 0
b0000000000000001 N
b0000000000000010 "
b0000000000000010 1
1G
1V
1#
0H
b0000000000000010 A
#226
0G
0V
0#
b0000000000000011 9
b0000000000000011 +
b0000000000000011 :
b0000000000000011 /
b0000000000000011 ,
#231
b10 Q
b10 %
b0000000000000011 X
b10 J
b10 Y
0S
b0000000000000011 '
b0000000000000010 E
b10 =
b10 L
b10 >
b0000000000000011 )
b0000000000000011 !
b0000000000000011 ?
b0000000000000011 "
b0000000000000011 1
b10 U
1G
1V
1#
0^
b0000000000000011 A
b0000000000000011 _
#236
b0000000000000100 ?
0G
0V
0#
b0000000000000100 +
b0000000000000100 :
b0000000000000100 /
b0000000000000100 _
#241
b0000000000000100 F
b10 R
08
1G
1V
1#
b10 2
06
b10 $
b10 P
b10 ;
#246
b0000000000000101 ?
0G
0V
0#
b0000000000000101 +
b0000000000000101 :
b0000000000000101 /
#251
1G
1V
1#
#256
0G
0V
0#
#261
1G
1V
1#
#266
0G
0V
0#
#271
1G
1V
1#
#276
0G
0V
0#
#281
1G
1V
1#
#286
0G
0V
0#
#291
1G
1V
1#
#296
0G
0V
0#
#301
1G
1V
1#
#306
0G
0V
0#
#311
1G
1V
1#
#316
0G
0V
0#
#321
1G
1V
1#
#326
b01 B
0`
b01 %
b10 C
b01 5
1Z
b01 =
b01 L
b01 (
b0000000000000010 )
b0000000000000010 \
b0000000000000010 T
b0000000000000010 0
b0000000000000100 ?
b0000000000000011 N
0G
0V
0#
1*
0W
b0000000000000011 +
#331
b01 Q
b0000000000000010 .
b00 R
b0000000000000010 &
b01 J
b00 Y
1S
b0000000000000010 K
b0000000000000100 '
b01 >
b0000000000000011 \
b01 U
1G
1V
1#
b0000000000000100 9
b01 $
1^
b0000000000000100 A
b01 P
b00 ;
#336
0G
0V
0#
#341
b00 Q
b0000000000000100 X
b01 C
b0000000000000011 .
b0000000000000011 &
b0000000000000011 K
16
b0000000000000100 \
b0000000000000100 !
b0000000000000011 0
b0000000000000100 N
b0000000000000100 "
b0000000000000100 1
b00 U
18
1G
1V
1#
b01 2
b0000000000000100 +
b0000000000000100 ,
#346
0G
0V
0#
#351
03
b00 B
0<
b00 %
b00 C
b0000000000000100 .
b0000000000000100 &
b00 5
b0000000000000100 K
b00 (
b00 >
b0000000000000100 0
1@
1G
1V
1#
b00 2
b00 $
#356
0G
0V
0#
#361
b00 -
b00 J
1G
1V
1#
1H
b00 L
07
0M
#366
0G
0V
0#
#371
1G
1V
1#
#376
0G
0V
0#
#381
1G
1V
1#
#386
0G
0V
0#
#391
1G
1V
1#
#396
0G
0V
0#
#401
1G
1V
1#
#406
0G
0V
0#
#411
1G
1V
1#
#416
0G
0V
0#
#421
1G
1V
1#
#426
0G
0V
0#
#431
1G
1V
1#
#436
0G
0V
0#
#441
1G
1V
1#
#446
1`
b01 C
b01 U
0G
0V
0#
b01 Y
1W
b0000000000000000 +
b0000000000000000 :
b0000000000000000 /
b0000000000000000 ,
b01 ;
#451
13
b01 B
b01 -
1<
b01 Q
b01 %
b0000000000000000 X
b01 R
b01 (
b0000000000000000 !
b0000000000000000 N
b0000000000000000 "
b0000000000000000 1
0@
1G
1V
1#
b01 2
b0000000000000000 9
b01 $
b0000000000000000 A
#456
0G
0V
0#
b0000000000000001 9
b0000000000000001 +
b0000000000000001 :
b0000000000000001 /
b0000000000000001 ,
#461
b0000000000000001 X
b0000000000000000 .
b0000000000000000 &
b01 J
b01 5
b0000000000000000 K
b01 L
17
b01 >
1M
b0000000000000001 \
b0000000000000001 !
b0000000000000000 0
b0000000000000001 N
b0000000000000001 "
b0000000000000001 1
1G
1V
1#
0H
b0000000000000001 A
#466
0G
0V
0#
b0000000000000010 9
b0000000000000010 +
b0000000000000010 :
b0000000000000010 /
b0000000000000010 ,
#471
b0000000000000010 X
b0000000000000001 .
b0000000000000001 &
b0000000000000001 K
b0000000000000010 \
b0000000000000010 !
b0000000000000001 0
b0000000000000010 N
b0000000000000010 "
b0000000000000010 1
1G
1V
1#
b0000000000000010 A
#476
0G
0V
0#
b0000000000000011 9
b0000000000000011 +
b0000000000000011 :
b0000000000000011 /
b0000000000000011 ,
#481
b0000000000000011 X
b0000000000000010 .
b0000000000000010 &
b0000000000000010 K
b0000000000000011 \
b0000000000000011 !
b0000000000000010 0
b0000000000000011 N
b0000000000000011 "
b0000000000000011 1
1G
1V
1#
b0000000000000011 A
#486
0G
0V
0#
b0000000000000100 9
b0000000000000100 +
b0000000000000100 :
b0000000000000100 /
b0000000000000100 ,
#491
b0000000000000100 X
b0000000000000011 .
b0000000000000011 &
b0000000000000011 K
b0000000000000100 \
b0000000000000100 !
b0000000000000011 0
b0000000000000100 N
b0000000000000100 "
b0000000000000100 1
1G
1V
1#
b0000000000000100 A
#496
0G
0V
0#
b0000000000000101 9
b0000000000000101 +
b0000000000000101 :
b0000000000000101 /
b0000000000000101 ,
#501
b0000000000000101 X
b0000000000000100 .
b0000000000000100 &
b0000000000000100 K
b0000000000000101 \
b0000000000000101 !
b0000000000000100 0
b0000000000000101 N
b0000000000000101 "
b0000000000000101 1
1G
1V
1#
b0000000000000101 A
#506
0G
0V
0#
b0000000000000110 9
b0000000000000110 +
b0000000000000110 :
b0000000000000110 /
b0000000000000110 ,
#511
b0000000000000110 X
b0000000000000101 .
b0000000000000101 &
b0000000000000101 K
b0000000000000110 \
b0000000000000110 !
b0000000000000101 0
b0000000000000110 N
b0000000000000110 "
b0000000000000110 1
1G
1V
1#
b0000000000000110 A
#516
0G
0V
0#
b0000000000000111 9
b0000000000000111 +
b0000000000000111 :
b0000000000000111 /
b0000000000000111 ,
#521
b0000000000000111 X
b0000000000000110 .
b0000000000000110 &
b0000000000000110 K
b0000000000000111 \
b0000000000000111 !
b0000000000000110 0
b0000000000000111 N
b0000000000000111 "
b0000000000000111 1
1G
1V
1#
b0000000000000111 A
#526
0G
0V
0#
b0000000000001000 9
b0000000000001000 +
b0000000000001000 :
b0000000000001000 /
b0000000000001000 ,
#531
b0000000000001000 X
b0000000000000111 .
b0000000000000111 &
b0000000000000111 K
b0000000000001000 \
b0000000000001000 !
b0000000000000111 0
b0000000000001000 N
b0000000000001000 "
b0000000000001000 1
1G
1V
1#
b0000000000001000 A
#536
0G
0V
0#
b0000000000001001 9
b0000000000001001 +
b0000000000001001 :
b0000000000001001 /
b0000000000001001 ,
#541
b0000000000001001 X
b0000000000001000 .
b0000000000001000 &
b0000000000001000 K
b0000000000001001 \
b0000000000001001 !
b0000000000001000 0
b0000000000001001 N
b0000000000001001 "
b0000000000001001 1
1G
1V
1#
b0000000000001001 A
#546
0G
0V
0#
b0000000000001010 9
b0000000000001010 +
b0000000000001010 :
b0000000000001010 /
b0000000000001010 ,
#551
b0000000000001010 X
b0000000000001001 .
b0000000000001001 &
b0000000000001001 K
b0000000000001010 \
b0000000000001010 !
b0000000000001001 0
b0000000000001010 N
b0000000000001010 "
b0000000000001010 1
1G
1V
1#
b0000000000001010 A
#556
0G
0V
0#
b0000000000001011 9
b0000000000001011 +
b0000000000001011 :
b0000000000001011 /
b0000000000001011 ,
#561
b0000000000001011 X
b0000000000001010 .
b0000000000001010 &
b0000000000001010 K
b0000000000001011 \
b0000000000001011 !
b0000000000001010 0
b0000000000001011 N
b0000000000001011 "
b0000000000001011 1
1G
1V
1#
b0000000000001011 A
#566
0G
0V
0#
b0000000000001100 9
b0000000000001100 +
b0000000000001100 :
b0000000000001100 /
b0000000000001100 ,
#571
b0000000000001100 X
b0000000000001011 .
b0000000000001011 &
b0000000000001011 K
b0000000000001100 \
b0000000000001100 !
b0000000000001011 0
b0000000000001100 N
b0000000000001100 "
b0000000000001100 1
1G
1V
1#
b0000000000001100 A
#576
0G
0V
0#
b0000000000001101 9
b0000000000001101 +
b0000000000001101 :
b0000000000001101 /
b0000000000001101 ,
#581
b0000000000001101 X
b0000000000001100 .
b0000000000001100 &
b0000000000001100 K
b0000000000001101 \
b0000000000001101 !
b0000000000001100 0
b0000000000001101 N
b0000000000001101 "
b0000000000001101 1
1G
1V
1#
b0000000000001101 A
#586
0G
0V
0#
b0000000000001110 9
b0000000000001110 +
b0000000000001110 :
b0000000000001110 /
b0000000000001110 ,
#591
b0000000000001110 X
b0000000000001101 .
b0000000000001101 &
b0000000000001101 K
b0000000000001110 \
b0000000000001110 !
b0000000000001101 0
b0000000000001110 N
b0000000000001110 "
b0000000000001110 1
1G
1V
1#
b0000000000001110 A
#596
0G
0V
0#
b0000000000001111 9
b0000000000001111 +
b0000000000001111 :
b0000000000001111 /
b0000000000001111 ,
#601
b0000000000001111 X
b0000000000001110 .
b0000000000001110 &
b0000000000001110 K
b0000000000001111 \
b0000000000001111 !
b0000000000001110 0
b0000000000001111 N
b0000000000001111 "
b0000000000001111 1
1G
1V
1#
b0000000000001111 A
#606
0G
0V
0#
b0000000000010000 9
b0000000000010000 +
b0000000000010000 :
b0000000000010000 /
b0000000000010000 ,
#611
b0000000000010000 X
b0000000000001111 .
b0000000000001111 &
b0000000000001111 K
b0000000000010000 \
b0000000000010000 !
b0000000000001111 0
b0000000000010000 N
b0000000000010000 "
b0000000000010000 1
1G
1V
1#
b0000000000010000 A
#616
0G
0V
0#
b0000000000010001 9
b0000000000010001 +
b0000000000010001 :
b0000000000010001 /
b0000000000010001 ,
#621
b0000000000010001 X
b0000000000010000 .
b0000000000010000 &
b0000000000010000 K
b0000000000010001 \
b0000000000010001 !
b0000000000010000 0
b0000000000010001 N
b0000000000010001 "
b0000000000010001 1
1G
1V
1#
b0000000000010001 A
#626
0G
0V
0#
b0000000000010010 9
b0000000000010010 +
b0000000000010010 :
b0000000000010010 /
b0000000000010010 ,
#631
b0000000000010010 X
b0000000000010001 .
b0000000000010001 &
b0000000000010001 K
b0000000000010010 \
b0000000000010010 !
b0000000000010001 0
b0000000000010010 N
b0000000000010010 "
b0000000000010010 1
1G
1V
1#
b0000000000010010 A
#636
0G
0V
0#
b0000000000010011 9
b0000000000010011 +
b0000000000010011 :
b0000000000010011 /
b0000000000010011 ,
#641
b0000000000010011 X
b0000000000010010 .
b0000000000010010 &
b0000000000010010 K
b0000000000010011 \
b0000000000010011 !
b0000000000010010 0
b0000000000010011 N
b0000000000010011 "
b0000000000010011 1
1G
1V
1#
b0000000000010011 A
#646
0G
0V
0#
b0000000000010100 9
b0000000000010100 +
b0000000000010100 :
b0000000000010100 /
b0000000000010100 ,
#651
b0000000000010100 X
b0000000000010011 .
b0000000000010011 &
b0000000000010011 K
b0000000000010100 \
b0000000000010100 !
b0000000000010011 0
b0000000000010100 N
b0000000000010100 "
b0000000000010100 1
1G
1V
1#
b0000000000010100 A
#656
0G
0V
0#
b0000000000010101 9
b0000000000010101 +
b0000000000010101 :
b0000000000010101 /
b0000000000010101 ,
#661
b0000000000010101 X
b0000000000010100 .
b0000000000010100 &
b0000000000010100 K
b0000000000010101 \
b0000000000010101 !
b0000000000010100 0
b0000000000010101 N
b0000000000010101 "
b0000000000010101 1
1G
1V
1#
b0000000000010101 A
#666
0G
0V
0#
b0000000000010110 9
b0000000000010110 +
b0000000000010110 :
b0000000000010110 /
b0000000000010110 ,
#671
b0000000000010110 X
b0000000000010101 .
b0000000000010101 &
b0000000000010101 K
b0000000000010110 \
b0000000000010110 !
b0000000000010101 0
b0000000000010110 N
b0000000000010110 "
b0000000000010110 1
1G
1V
1#
b0000000000010110 A
#676
0G
0V
0#
b0000000000010111 9
b0000000000010111 +
b0000000000010111 :
b0000000000010111 /
b0000000000010111 ,
#681
b0000000000010111 X
b0000000000010110 .
b0000000000010110 &
b0000000000010110 K
b0000000000010111 \
b0000000000010111 !
b0000000000010110 0
b0000000000010111 N
b0000000000010111 "
b0000000000010111 1
1G
1V
1#
b0000000000010111 A
#686
0G
0V
0#
b0000000000011000 9
b0000000000011000 +
b0000000000011000 :
b0000000000011000 /
b0000000000011000 ,
#691
b0000000000011000 X
b0000000000010111 .
b0000000000010111 &
b0000000000010111 K
b0000000000011000 \
b0000000000011000 !
b0000000000010111 0
b0000000000011000 N
b0000000000011000 "
b0000000000011000 1
1G
1V
1#
b0000000000011000 A
#696
0G
0V
0#
b0000000000011001 9
b0000000000011001 +
b0000000000011001 :
b0000000000011001 /
b0000000000011001 ,
#701
b0000000000011001 X
b0000000000011000 .
b0000000000011000 &
b0000000000011000 K
b0000000000011001 \
b0000000000011001 !
b0000000000011000 0
b0000000000011001 N
b0000000000011001 "
b0000000000011001 1
1G
1V
1#
b0000000000011001 A
#706
0G
0V
0#
b0000000000011010 9
b0000000000011010 +
b0000000000011010 :
b0000000000011010 /
b0000000000011010 ,
#711
b0000000000011010 X
b0000000000011001 .
b0000000000011001 &
b0000000000011001 K
b0000000000011010 \
b0000000000011010 !
b0000000000011001 0
b0000000000011010 N
b0000000000011010 "
b0000000000011010 1
1G
1V
1#
b0000000000011010 A
#716
0G
0V
0#
b0000000000011011 9
b0000000000011011 +
b0000000000011011 :
b0000000000011011 /
b0000000000011011 ,
#721
b0000000000011011 X
b0000000000011010 .
b0000000000011010 &
b0000000000011010 K
b0000000000011011 \
b0000000000011011 !
b0000000000011010 0
b0000000000011011 N
b0000000000011011 "
b0000000000011011 1
1G
1V
1#
b0000000000011011 A
#726
0G
0V
0#
b0000000000011100 9
b0000000000011100 +
b0000000000011100 :
b0000000000011100 /
b0000000000011100 ,
#731
b0000000000011100 X
b0000000000011011 .
b0000000000011011 &
b0000000000011011 K
b0000000000011100 \
b0000000000011100 !
b0000000000011011 0
b0000000000011100 N
b0000000000011100 "
b0000000000011100 1
1G
1V
1#
b0000000000011100 A
#736
0G
0V
0#
b0000000000011101 9
b0000000000011101 +
b0000000000011101 :
b0000000000011101 /
b0000000000011101 ,
#741
b0000000000011101 X
b0000000000011100 .
b0000000000011100 &
b0000000000011100 K
b0000000000011101 \
b0000000000011101 !
b0000000000011100 0
b0000000000011101 N
b0000000000011101 "
b0000000000011101 1
1G
1V
1#
b0000000000011101 A
#746
0G
0V
0#
b0000000000011110 9
b0000000000011110 +
b0000000000011110 :
b0000000000011110 /
b0000000000011110 ,
#751
b0000000000011110 X
b0000000000011101 .
b0000000000011101 &
b0000000000011101 K
b0000000000011110 \
b0000000000011110 !
b0000000000011101 0
b0000000000011110 N
b0000000000011110 "
b0000000000011110 1
1G
1V
1#
b0000000000011110 A
#756
0G
0V
0#
b0000000000011111 9
b0000000000011111 +
b0000000000011111 :
b0000000000011111 /
b0000000000011111 ,
#761
b0000000000011111 X
b0000000000011110 .
b0000000000011110 &
b0000000000011110 K
b0000000000011111 \
b0000000000011111 !
b0000000000011110 0
b0000000000011111 N
b0000000000011111 "
b0000000000011111 1
1G
1V
1#
b0000000000011111 A
#766
0G
0V
0#
b0000000000100000 9
b0000000000100000 +
b0000000000100000 :
b0000000000100000 /
b0000000000100000 ,
#771
b0000000000100000 X
b0000000000011111 .
b0000000000011111 &
b0000000000011111 K
b0000000000100000 \
b0000000000100000 !
b0000000000011111 0
b0000000000100000 N
b0000000000100000 "
b0000000000100000 1
1G
1V
1#
b0000000000100000 A
#776
0G
0V
0#
b0000000000100001 9
b0000000000100001 +
b0000000000100001 :
b0000000000100001 /
b0000000000100001 ,
#781
b0000000000100001 X
b0000000000100000 .
b0000000000100000 &
b0000000000100000 K
b0000000000100001 \
b0000000000100001 !
b0000000000100000 0
b0000000000100001 N
b0000000000100001 "
b0000000000100001 1
1G
1V
1#
b0000000000100001 A
#786
0G
0V
0#
b0000000000100010 9
b0000000000100010 +
b0000000000100010 :
b0000000000100010 /
b0000000000100010 ,
#791
b0000000000100010 X
b0000000000100001 .
b0000000000100001 &
b0000000000100001 K
b0000000000100010 \
b0000000000100010 !
b0000000000100001 0
b0000000000100010 N
b0000000000100010 "
b0000000000100010 1
1G
1V
1#
b0000000000100010 A
#796
0G
0V
0#
b0000000000100011 9
b0000000000100011 +
b0000000000100011 :
b0000000000100011 /
b0000000000100011 ,
#801
b0000000000100011 X
b0000000000100010 .
b0000000000100010 &
b0000000000100010 K
b0000000000100011 \
b0000000000100011 !
b0000000000100010 0
b0000000000100011 N
b0000000000100011 "
b0000000000100011 1
1G
1V
1#
b0000000000100011 A
#806
0G
0V
0#
b0000000000100100 9
b0000000000100100 +
b0000000000100100 :
b0000000000100100 /
b0000000000100100 ,
#811
b0000000000100100 X
b0000000000100011 .
b0000000000100011 &
b0000000000100011 K
b0000000000100100 \
b0000000000100100 !
b0000000000100011 0
b0000000000100100 N
b0000000000100100 "
b0000000000100100 1
1G
1V
1#
b0000000000100100 A
#816
0G
0V
0#
b0000000000100101 9
b0000000000100101 +
b0000000000100101 :
b0000000000100101 /
b0000000000100101 ,
#821
b0000000000100101 X
b0000000000100100 .
b0000000000100100 &
b0000000000100100 K
b0000000000100101 \
b0000000000100101 !
b0000000000100100 0
b0000000000100101 N
b0000000000100101 "
b0000000000100101 1
1G
1V
1#
b0000000000100101 A
#826
0G
0V
0#
b0000000000100110 9
b0000000000100110 +
b0000000000100110 :
b0000000000100110 /
b0000000000100110 ,
#831
b0000000000100110 X
b0000000000100101 .
b0000000000100101 &
b0000000000100101 K
b0000000000100110 \
b0000000000100110 !
b0000000000100101 0
b0000000000100110 N
b0000000000100110 "
b0000000000100110 1
1G
1V
1#
b0000000000100110 A
#836
0G
0V
0#
b0000000000100111 9
b0000000000100111 +
b0000000000100111 :
b0000000000100111 /
b0000000000100111 ,
#841
b0000000000100111 X
b0000000000100110 .
b0000000000100110 &
b0000000000100110 K
b0000000000100111 \
b0000000000100111 !
b0000000000100110 0
b0000000000100111 N
b0000000000100111 "
b0000000000100111 1
1G
1V
1#
b0000000000100111 A
#846
0G
0V
0#
b0000000000101000 9
b0000000000101000 +
b0000000000101000 :
b0000000000101000 /
b0000000000101000 ,
#851
b0000000000101000 X
b0000000000100111 .
b0000000000100111 &
b0000000000100111 K
b0000000000101000 \
b0000000000101000 !
b0000000000100111 0
b0000000000101000 N
b0000000000101000 "
b0000000000101000 1
1G
1V
1#
b0000000000101000 A
#856
0G
0V
0#
b0000000000101001 9
b0000000000101001 +
b0000000000101001 :
b0000000000101001 /
b0000000000101001 ,
#861
b0000000000101001 X
b0000000000101000 .
b0000000000101000 &
b0000000000101000 K
b0000000000101001 \
b0000000000101001 !
b0000000000101000 0
b0000000000101001 N
b0000000000101001 "
b0000000000101001 1
1G
1V
1#
b0000000000101001 A
#866
0G
0V
0#
b0000000000101010 9
b0000000000101010 +
b0000000000101010 :
b0000000000101010 /
b0000000000101010 ,
#871
b0000000000101010 X
b0000000000101001 .
b0000000000101001 &
b0000000000101001 K
b0000000000101010 \
b0000000000101010 !
b0000000000101001 0
b0000000000101010 N
b0000000000101010 "
b0000000000101010 1
1G
1V
1#
b0000000000101010 A
#876
0G
0V
0#
b0000000000101011 9
b0000000000101011 +
b0000000000101011 :
b0000000000101011 /
b0000000000101011 ,
#881
b0000000000101011 X
b0000000000101010 .
b0000000000101010 &
b0000000000101010 K
b0000000000101011 \
b0000000000101011 !
b0000000000101010 0
b0000000000101011 N
b0000000000101011 "
b0000000000101011 1
1G
1V
1#
b0000000000101011 A
#886
0G
0V
0#
b0000000000101100 9
b0000000000101100 +
b0000000000101100 :
b0000000000101100 /
b0000000000101100 ,
#891
b0000000000101100 X
b0000000000101011 .
b0000000000101011 &
b0000000000101011 K
b0000000000101100 \
b0000000000101100 !
b0000000000101011 0
b0000000000101100 N
b0000000000101100 "
b0000000000101100 1
1G
1V
1#
b0000000000101100 A
#896
0G
0V
0#
b0000000000101101 9
b0000000000101101 +
b0000000000101101 :
b0000000000101101 /
b0000000000101101 ,
#901
b0000000000101101 X
b0000000000101100 .
b0000000000101100 &
b0000000000101100 K
b0000000000101101 \
b0000000000101101 !
b0000000000101100 0
b0000000000101101 N
b0000000000101101 "
b0000000000101101 1
1G
1V
1#
b0000000000101101 A
#906
0G
0V
0#
b0000000000101110 9
b0000000000101110 +
b0000000000101110 :
b0000000000101110 /
b0000000000101110 ,
#911
b0000000000101110 X
b0000000000101101 .
b0000000000101101 &
b0000000000101101 K
b0000000000101110 \
b0000000000101110 !
b0000000000101101 0
b0000000000101110 N
b0000000000101110 "
b0000000000101110 1
1G
1V
1#
b0000000000101110 A
#916
0G
0V
0#
b0000000000101111 9
b0000000000101111 +
b0000000000101111 :
b0000000000101111 /
b0000000000101111 ,
#921
b0000000000101111 X
b0000000000101110 .
b0000000000101110 &
b0000000000101110 K
b0000000000101111 \
b0000000000101111 !
b0000000000101110 0
b0000000000101111 N
b0000000000101111 "
b0000000000101111 1
1G
1V
1#
b0000000000101111 A
#926
0G
0V
0#
b0000000000110000 9
b0000000000110000 +
b0000000000110000 :
b0000000000110000 /
b0000000000110000 ,
#931
b0000000000110000 X
b0000000000101111 .
b0000000000101111 &
b0000000000101111 K
b0000000000110000 \
b0000000000110000 !
b0000000000101111 0
b0000000000110000 N
b0000000000110000 "
b0000000000110000 1
1G
1V
1#
b0000000000110000 A
#936
0G
0V
0#
b0000000000110001 9
b0000000000110001 +
b0000000000110001 :
b0000000000110001 /
b0000000000110001 ,
#941
b0000000000110001 X
b0000000000110000 .
b0000000000110000 &
b0000000000110000 K
b0000000000110001 \
b0000000000110001 !
b0000000000110000 0
b0000000000110001 N
b0000000000110001 "
b0000000000110001 1
1G
1V
1#
b0000000000110001 A
#946
0G
0V
0#
b0000000000110010 9
b0000000000110010 +
b0000000000110010 :
b0000000000110010 /
b0000000000110010 ,
#951
b0000000000110010 X
b0000000000110001 .
b0000000000110001 &
b0000000000110001 K
b0000000000110010 \
b0000000000110010 !
b0000000000110001 0
b0000000000110010 N
b0000000000110010 "
b0000000000110010 1
1G
1V
1#
b0000000000110010 A
#956
0G
0V
0#
b0000000000110011 9
b0000000000110011 +
b0000000000110011 :
b0000000000110011 /
b0000000000110011 ,
#961
b0000000000110011 X
b0000000000110010 .
b0000000000110010 &
b0000000000110010 K
b0000000000110011 \
b0000000000110011 !
b0000000000110010 0
b0000000000110011 N
b0000000000110011 "
b0000000000110011 1
1G
1V
1#
b0000000000110011 A
#966
0G
0V
0#
b0000000000110100 9
b0000000000110100 +
b0000000000110100 :
b0000000000110100 /
b0000000000110100 ,
#971
b0000000000110100 X
b0000000000110011 .
b0000000000110011 &
b0000000000110011 K
b0000000000110100 \
b0000000000110100 !
b0000000000110011 0
b0000000000110100 N
b0000000000110100 "
b0000000000110100 1
1G
1V
1#
b0000000000110100 A
#976
0G
0V
0#
b0000000000110101 9
b0000000000110101 +
b0000000000110101 :
b0000000000110101 /
b0000000000110101 ,
#981
b0000000000110101 X
b0000000000110100 .
b0000000000110100 &
b0000000000110100 K
b0000000000110101 \
b0000000000110101 !
b0000000000110100 0
b0000000000110101 N
b0000000000110101 "
b0000000000110101 1
1G
1V
1#
b0000000000110101 A
#986
0G
0V
0#
b0000000000110110 9
b0000000000110110 +
b0000000000110110 :
b0000000000110110 /
b0000000000110110 ,
#991
b0000000000110110 X
b0000000000110101 .
b0000000000110101 &
b0000000000110101 K
b0000000000110110 \
b0000000000110110 !
b0000000000110101 0
b0000000000110110 N
b0000000000110110 "
b0000000000110110 1
1G
1V
1#
b0000000000110110 A
#996
0G
0V
0#
b0000000000110111 9
b0000000000110111 +
b0000000000110111 :
b0000000000110111 /
b0000000000110111 ,
