src/test_run_dir/WaveformCounterSpec597410123/DeviceUnderTest.vcd
$date
2021-02-21T02:50+0000
$end
$version
0.2
$end
$comment

$end
$timescale 1ns  $end
$scope module DeviceUnderTest $end
 $var wire 2 ! io_out $end
 $var wire 2 " io_b $end
 $var wire 1 # clock $end
 $var wire 2 $ io_a $end
 $var wire 1 % reset $end
$upscope $end
$enddefinitions $end
$dumpvars
0%
0#
b00 $
b00 !
b00 "
$end
#0
1%
#1
1#
#6
0#
#11
1#
#16
0#
#21
1#
#26
0#
#31
1#
#36
0#
#41
1#
#46
0%
0#
#51
1#
#56
b01 "
0#
#61
1#
#66
b10 "
0#
#71
1#
#76
b11 "
0#
#81
1#
#86
b00 "
0#
b01 $
#91
1#
#96
b01 !
b01 "
0#
#101
1#
#106
b00 !
b10 "
0#
#111
1#
#116
b01 !
b11 "
0#
#121
1#
#126
b00 !
b00 "
0#
b10 $
#131
1#
#136
b01 "
0#
#141
1#
#146
b10 !
b10 "
0#
#151
1#
#156
b11 "
0#
#161
1#
#166
b00 !
b00 "
0#
b11 $
#171
1#
#176
b01 !
b01 "
0#
#181
1#
#186
b10 !
b10 "
0#
#191
1#
#196
b11 !
b11 "
0#
