src/generated/fifo.FifoSpec1781118912/BubbleFifo.vcd
$date
2021-02-21T02:50+0000
$end
$version
0.2
$end
$comment

$end
$timescale 1ns  $end
$scope module BubbleFifo $end
 $var wire 16 - io_deq_bits $end
 $var wire 1 6 io_enq_ready $end
 $var wire 1 9 io_deq_valid $end
 $var wire 1 : Buffer_3 $end
 $var wire 16 ; io_enq_bits $end
 $var wire 1 < Buffer $end
 $var wire 1 F clock $end
 $var wire 1 G Buffer_2 $end
 $var wire 1 [ io_deq_ready $end
 $var wire 1 \ reset $end
 $var wire 1 a Buffer_1 $end
 $var wire 1 c io_enq_valid $end
  $scope module Buffer_1 $end
   $var wire 1 ! _GEN_1 $end
   $var wire 16 % io_deq_bits $end
   $var wire 16 ( io_enq_bits $end
   $var wire 16 ) dataReg $end
   $var wire 1 * io_deq_ready $end
   $var wire 1 , _GEN_0 $end
   $var wire 1 3 io_enq_valid $end
   $var wire 1 4 clock $end
   $var wire 1 8 _GEN_3 $end
   $var wire 1 E io_enq_ready $end
   $var wire 1 J io_deq_valid $end
   $var wire 16 K _GEN_2 $end
   $var wire 1 P fullReg $end
   $var wire 1 S reset $end
  $upscope $end
  $scope module Buffer_2 $end
   $var wire 16 " io_enq_bits $end
   $var wire 1 # _GEN_0 $end
   $var wire 1 $ _GEN_3 $end
   $var wire 1 & clock $end
   $var wire 1 + fullReg $end
   $var wire 1 = reset $end
   $var wire 1 > io_enq_ready $end
   $var wire 16 @ _GEN_2 $end
   $var wire 1 B io_deq_valid $end
   $var wire 1 I _GEN_1 $end
   $var wire 16 X dataReg $end
   $var wire 16 Y io_deq_bits $end
   $var wire 1 ^ io_enq_valid $end
   $var wire 1 b io_deq_ready $end
  $upscope $end
  $scope module Buffer $end
   $var wire 1 0 _GEN_1 $end
   $var wire 1 1 reset $end
   $var wire 1 2 io_enq_ready $end
   $var wire 1 7 io_deq_valid $end
   $var wire 1 ? _GEN_3 $end
   $var wire 1 D _GEN_0 $end
   $var wire 16 H dataReg $end
   $var wire 1 N io_enq_valid $end
   $var wire 16 R io_deq_bits $end
   $var wire 1 V io_deq_ready $end
   $var wire 16 W _GEN_2 $end
   $var wire 1 _ clock $end
   $var wire 16 ` io_enq_bits $end
   $var wire 1 d fullReg $end
  $upscope $end
  $scope module Buffer_3 $end
   $var wire 16 ' _GEN_2 $end
   $var wire 1 . io_enq_ready $end
   $var wire 1 / reset $end
   $var wire 1 5 io_deq_valid $end
   $var wire 1 A _GEN_1 $end
   $var wire 16 C dataReg $end
   $var wire 1 L _GEN_3 $end
   $var wire 1 M io_enq_valid $end
   $var wire 1 O clock $end
   $var wire 16 Q io_enq_bits $end
   $var wire 16 T io_deq_bits $end
   $var wire 1 U io_deq_ready $end
   $var wire 1 Z _GEN_0 $end
   $var wire 1 ] fullReg $end
  $upscope $end
$upscope $end
$enddefinitions $end
$dumpvars
b0000000000000000 H
0&
0Z
0=
b0000000000000000 -
b0000000000000000 Y
07
b0000000000000000 '
0V
0N
09
b0000000000000000 )
0P
b0000000000000000 @
03
b0000000000000000 W
0J
05
b0000000000000000 %
b0000000000000000 Q
0a
0L
0D
0/
0c
b0000000000000000 K
0F
01
0[
0]
0+
0_
0B
0<
b0000000000000000 `
b0000000000000000 X
0S
b0000000000000000 C
0>
06
0!
0U
0M
b0000000000000000 (
08
0#
0d
b0000000000000000 T
0O
0:
02
b0000000000000000 "
0I
04
b0000000000000000 ;
0.
0b
b0000000000000000 R
0E
00
0\
0G
0?
0*
0^
0A
0,
0$
$end
#0
11
1.
1V
1S
12
1*
16
1E
1=
1/
1b
1>
1\
#1
1F
14
1&
1O
1_
#6
0F
04
0&
0O
0_
#11
1F
14
1&
1O
1_
#16
0F
04
0&
0O
0_
#21
1F
14
1&
1O
1_
#26
0F
04
0&
0O
0_
#31
1F
14
1&
1O
1_
#36
0F
04
0&
0O
0_
#41
1F
14
1&
1O
1_
#46
0_
b0000000010101011 `
0F
04
01
0&
0S
0O
0=
0/
b0000000010101011 ;
0\
#51
1F
14
1&
1O
1_
#56
10
1c
b0000000100100011 `
1N
1?
0F
04
0&
b0000000100100011 W
0O
0_
b0000000100100011 ;
#61
13
14
b0000000100100011 R
1&
b0000000100100011 K
06
b0000000100100011 (
17
1!
0?
1F
1d
18
02
b0000000100100011 H
1O
1_
#66
0c
b0000000010101011 `
0N
0F
04
0&
0O
b0000000010101011 ;
0_
#71
03
b0000000100100011 %
14
1&
1J
16
0E
07
b0000000100100011 )
00
1F
b0000000100100011 "
b0000000100100011 @
0d
08
0V
12
1$
1O
1^
1I
1P
1_
#76
0F
04
0&
0O
0_
#81
1B
b0000000100100011 Q
b0000000100100011 X
14
1&
b0000000100100011 Y
0J
b0000000100100011 '
1E
1L
0>
1M
0!
1F
1V
0*
0$
1O
1+
0^
1A
0P
1_
#86
0F
04
0&
0O
0_
#91
0B
b0000000100100011 -
14
b0000000100100011 C
0.
1&
15
1Z
0b
0M
1>
b0000000100100011 T
1F
1*
1]
19
1O
0+
0I
1_
#96
0F
04
0&
0O
0_
#101
1F
14
1&
1O
1_
#106
0F
04
0&
0O
0_
#111
1F
14
1&
1O
1_
#116
0F
04
0&
0O
0_
#121
1F
14
1&
1O
1_
#126
0F
04
0&
0O
0_
#131
1F
14
1&
1O
1_
#136
0F
04
0&
0O
0_
#141
1F
14
1&
1O
1_
#146
0F
04
0&
0O
0_
#151
1F
14
1&
1O
1_
#156
0F
04
0&
0O
0_
#161
1F
14
1&
1O
1_
#166
0F
04
0&
0O
0_
#171
1F
14
1&
1O
1_
#176
0F
04
0&
0O
0_
#181
1F
14
1&
1O
1_
#186
0F
04
1U
0&
0Z
0O
0L
1[
0_
#191
1F
14
1.
1&
05
0]
09
1O
0A
1b
1_
#196
0F
04
0U
0&
0O
0[
0_
#201
1F
14
1&
1O
1_
#206
10
1c
b0000000000000001 `
1N
1?
0F
04
0&
b0000000000000001 W
0O
b0000000000000001 ;
0_
#211
13
14
b0000000000000001 R
1&
b0000000000000001 K
06
b0000000000000001 (
17
1!
0?
1F
1d
18
02
b0000000000000001 H
1O
1_
#216
b0000000000000010 `
0F
04
0&
b0000000000000010 W
0O
b0000000000000010 ;
0_
#221
03
b0000000000000001 %
14
1&
1J
16
0E
07
b0000000000000001 )
1?
1F
b0000000000000001 "
b0000000000000001 @
0d
08
0V
12
1$
1O
1^
1I
1P
1_
#226
0F
04
0&
0O
0_
#231
13
b0000000000000001 Q
14
b0000000000000010 R
0J
b0000000000000010 K
06
1L
17
1M
1F
1d
02
0*
b0000000000000010 H
1+
0^
1A
1_
1B
b0000000000000001 X
1&
b0000000000000001 Y
b0000000000000001 '
1E
b0000000000000010 (
0>
0?
18
1V
0$
1O
0P
#236
b0000000000000011 `
0F
04
0&
b0000000000000011 W
0O
b0000000000000011 ;
0_
#241
03
14
1J
15
16
07
0b
0M
1F
0d
12
1*
1]
0+
1^
1_
0B
b0000000000000001 -
b0000000000000010 %
b0000000000000001 C
0.
1&
1Z
0E
1>
b0000000000000010 )
b0000000000000001 T
1?
b0000000000000010 "
b0000000000000010 @
08
0V
19
1$
1O
1P
#246
0F
04
0&
0O
0_
#251
13
b0000000000000010 Q
14
b0000000000000011 R
0J
b0000000000000011 K
06
17
1M
1F
1d
02
0*
b0000000000000011 H
1+
0^
1_
1B
b0000000000000010 X
1&
b0000000000000010 Y
b0000000000000010 '
1E
b0000000000000011 (
0>
0?
18
1#
1V
1O
0P
#256
b0000000000000100 `
0F
04
0&
b0000000000000100 W
0O
b0000000000000100 ;
0_
#261
03
b0000000000000011 %
14
1&
1J
16
0E
07
b0000000000000011 )
1?
1F
b0000000000000011 "
b0000000000000011 @
0d
0V
12
1O
1^
1P
1,
1_
#266
0F
04
0&
0O
0_
#271
13
14
b0000000000000100 R
1&
1D
b0000000000000100 K
06
b0000000000000100 (
17
1F
1d
02
b0000000000000100 H
1O
1_
#276
b0000000000000101 `
0F
04
0&
b0000000000000101 W
0O
b0000000000000101 ;
0_
#281
1F
14
1&
1O
1_
#286
0F
04
0&
0O
0_
#291
1F
14
1&
1O
1_
#296
0F
04
0&
0O
0_
#301
1F
14
1&
1O
1_
#306
0F
04
0&
0O
0_
#311
1F
14
1&
1O
1_
#316
0F
04
0&
0O
0_
#321
1F
14
1&
1O
1_
#326
0c
0N
0F
04
1U
0&
0Z
b0000000000000100 W
0O
0L
1[
0_
#331
1F
14
1.
1&
05
0#
0]
09
0$
1O
1L
1b
1_
#336
0F
04
0&
0O
0_
#341
0B
b0000000000000010 -
14
b0000000000000010 C
0.
1&
15
0L
0b
0M
1>
b0000000000000010 T
1F
08
1*
1]
19
1$
1O
0+
0,
1_
#346
0F
04
0&
0O
0_
#351
b0000000000000011 Q
14
0J
05
1L
1b
1M
1F
0*
0]
1+
0^
1_
1B
b0000000000000011 X
1.
1&
b0000000000000011 Y
0D
b0000000000000011 '
1E
0>
0?
18
1V
09
0$
1O
0P
#356
0F
04
0&
0O
0_
#361
03
14
1J
15
16
0L
07
0b
0M
00
1F
0d
12
1*
1]
0+
1^
1_
0B
b0000000000000011 -
b0000000000000100 %
b0000000000000011 C
0.
1&
0E
1>
b0000000000000100 )
b0000000000000011 T
b0000000000000100 "
b0000000000000100 @
08
0V
19
1$
1O
1P
#366
0F
04
0&
0O
0_
#371
1B
b0000000000000100 Q
b0000000000000100 X
14
1.
1&
05
b0000000000000100 Y
0J
b0000000000000100 '
1E
1L
1b
1M
0>
0!
1F
1V
0*
0]
09
0$
1O
1+
0^
0P
1_
#376
0F
04
0&
0O
0_
#381
0B
b0000000000000100 -
14
b0000000000000100 C
0.
1&
15
0L
0b
0M
1>
b0000000000000100 T
1F
1*
1]
19
1O
0+
0I
1_
#386
0F
04
0&
0O
0_
#391
1F
14
1.
1&
05
0]
09
1O
0A
1b
1_
#396
0F
04
0&
0O
0_
#401
1F
14
1&
1O
1_
#406
0F
04
0&
0O
0_
#411
1F
14
1&
1O
1_
#416
0F
04
0&
0O
0_
#421
1F
14
1&
1O
1_
#426
0F
04
0&
0O
0_
#431
1F
14
1&
1O
1_
#436
0F
04
0&
0O
0_
#441
1F
14
1&
1O
1_
#446
10
1c
b0000000000000000 `
1N
1?
0F
04
0&
b0000000000000000 W
0O
b0000000000000000 ;
0_
#451
13
14
b0000000000000000 R
1&
b0000000000000000 K
06
b0000000000000000 (
17
1!
0?
1F
1d
18
02
b0000000000000000 H
1O
1_
#456
b0000000000000001 `
0F
04
0&
b0000000000000001 W
0O
b0000000000000001 ;
0_
#461
03
b0000000000000000 %
14
1&
1J
16
0E
07
b0000000000000000 )
1?
1F
b0000000000000000 "
b0000000000000000 @
0d
08
0V
12
1$
1O
1^
1I
1P
1_
#466
b0000000000000010 `
0F
04
0&
b0000000000000010 W
0O
b0000000000000010 ;
0_
#471
13
b0000000000000000 Q
14
b0000000000000010 R
0J
b0000000000000010 K
06
1L
17
1M
1F
1d
02
0*
b0000000000000010 H
1+
0^
1A
1_
1B
b0000000000000000 X
1&
b0000000000000000 Y
b0000000000000000 '
1E
b0000000000000010 (
0>
0?
18
1V
0$
1O
0P
#476
b0000000000000011 `
0F
04
0&
b0000000000000011 W
0O
b0000000000000011 ;
0_
#481
03
14
1J
15
16
0L
07
0b
0M
1F
0d
12
1*
1]
0+
1^
1_
0B
b0000000000000000 -
b0000000000000010 %
b0000000000000000 C
0.
1&
0E
1>
b0000000000000010 )
b0000000000000000 T
1?
b0000000000000010 "
b0000000000000010 @
08
0V
19
1$
1O
1P
#486
b0000000000000100 `
0F
04
0&
b0000000000000100 W
0O
b0000000000000100 ;
0_
#491
13
b0000000000000010 Q
14
b0000000000000100 R
0J
05
b0000000000000100 K
06
1L
17
1b
1M
1F
1d
02
0*
0]
b0000000000000100 H
1+
0^
1_
1B
b0000000000000010 X
1.
1&
b0000000000000010 Y
b0000000000000010 '
1E
b0000000000000100 (
0>
0?
18
1V
09
0$
1O
0P
#496
b0000000000000101 `
0F
04
0&
b0000000000000101 W
0O
b0000000000000101 ;
0_
#501
03
14
1J
15
16
0L
07
0b
0M
1F
0d
12
1*
1]
0+
1^
1_
0B
b0000000000000010 -
b0000000000000100 %
b0000000000000010 C
0.
1&
0E
1>
b0000000000000100 )
b0000000000000010 T
1?
b0000000000000100 "
b0000000000000100 @
08
0V
19
1$
1O
1P
#506
b0000000000000110 `
0F
04
0&
b0000000000000110 W
0O
b0000000000000110 ;
0_
#511
13
b0000000000000100 Q
14
b0000000000000110 R
0J
05
b0000000000000110 K
06
1L
17
1b
1M
1F
1d
02
0*
0]
b0000000000000110 H
1+
0^
1_
1B
b0000000000000100 X
1.
1&
b0000000000000100 Y
b0000000000000100 '
1E
b0000000000000110 (
0>
0?
18
1V
09
0$
1O
0P
#516
b0000000000000111 `
0F
04
0&
b0000000000000111 W
0O
b0000000000000111 ;
0_
#521
03
14
1J
15
16
0L
07
0b
0M
1F
0d
12
1*
1]
0+
1^
1_
0B
b0000000000000100 -
b0000000000000110 %
b0000000000000100 C
0.
1&
0E
1>
b0000000000000110 )
b0000000000000100 T
1?
b0000000000000110 "
b0000000000000110 @
08
0V
19
1$
1O
1P
#526
b0000000000001000 `
0F
04
0&
b0000000000001000 W
0O
b0000000000001000 ;
0_
#531
13
b0000000000000110 Q
14
b0000000000001000 R
0J
05
b0000000000001000 K
06
1L
17
1b
1M
1F
1d
02
0*
0]
b0000000000001000 H
1+
0^
1_
1B
b0000000000000110 X
1.
1&
b0000000000000110 Y
b0000000000000110 '
1E
b0000000000001000 (
0>
0?
18
1V
09
0$
1O
0P
#536
b0000000000001001 `
0F
04
0&
b0000000000001001 W
0O
b0000000000001001 ;
0_
#541
03
14
1J
15
16
0L
07
0b
0M
1F
0d
12
1*
1]
0+
1^
1_
0B
b0000000000000110 -
b0000000000001000 %
b0000000000000110 C
0.
1&
0E
1>
b0000000000001000 )
b0000000000000110 T
1?
b0000000000001000 "
b0000000000001000 @
08
0V
19
1$
1O
1P
#546
b0000000000001010 `
0F
04
0&
b0000000000001010 W
0O
b0000000000001010 ;
0_
#551
13
b0000000000001000 Q
14
b0000000000001010 R
0J
05
b0000000000001010 K
06
1L
17
1b
1M
1F
1d
02
0*
0]
b0000000000001010 H
1+
0^
1_
1B
b0000000000001000 X
1.
1&
b0000000000001000 Y
b0000000000001000 '
1E
b0000000000001010 (
0>
0?
18
1V
09
0$
1O
0P
#556
b0000000000001011 `
0F
04
0&
b0000000000001011 W
0O
b0000000000001011 ;
0_
#561
03
14
1J
15
16
0L
07
0b
0M
1F
0d
12
1*
1]
0+
1^
1_
0B
b0000000000001000 -
b0000000000001010 %
b0000000000001000 C
0.
1&
0E
1>
b0000000000001010 )
b0000000000001000 T
1?
b0000000000001010 "
b0000000000001010 @
08
0V
19
1$
1O
1P
#566
b0000000000001100 `
0F
04
0&
b0000000000001100 W
0O
b0000000000001100 ;
0_
#571
13
b0000000000001010 Q
14
b0000000000001100 R
0J
05
b0000000000001100 K
06
1L
17
1b
1M
1F
1d
02
0*
0]
b0000000000001100 H
1+
0^
1_
1B
b0000000000001010 X
1.
1&
b0000000000001010 Y
b0000000000001010 '
1E
b0000000000001100 (
0>
0?
18
1V
09
0$
1O
0P
#576
b0000000000001101 `
0F
04
0&
b0000000000001101 W
0O
b0000000000001101 ;
0_
#581
03
14
1J
15
16
0L
07
0b
0M
1F
0d
12
1*
1]
0+
1^
1_
0B
b0000000000001010 -
b0000000000001100 %
b0000000000001010 C
0.
1&
0E
1>
b0000000000001100 )
b0000000000001010 T
1?
b0000000000001100 "
b0000000000001100 @
08
0V
19
1$
1O
1P
#586
b0000000000001110 `
0F
04
0&
b0000000000001110 W
0O
b0000000000001110 ;
0_
#591
13
b0000000000001100 Q
14
b0000000000001110 R
0J
05
b0000000000001110 K
06
1L
17
1b
1M
1F
1d
02
0*
0]
b0000000000001110 H
1+
0^
1_
1B
b0000000000001100 X
1.
1&
b0000000000001100 Y
b0000000000001100 '
1E
b0000000000001110 (
0>
0?
18
1V
09
0$
1O
0P
#596
b0000000000001111 `
0F
04
0&
b0000000000001111 W
0O
b0000000000001111 ;
0_
#601
03
14
1J
15
16
0L
07
0b
0M
1F
0d
12
1*
1]
0+
1^
1_
0B
b0000000000001100 -
b0000000000001110 %
b0000000000001100 C
0.
1&
0E
1>
b0000000000001110 )
b0000000000001100 T
1?
b0000000000001110 "
b0000000000001110 @
08
0V
19
1$
1O
1P
#606
b0000000000010000 `
0F
04
0&
b0000000000010000 W
0O
b0000000000010000 ;
0_
#611
13
b0000000000001110 Q
14
b0000000000010000 R
0J
05
b0000000000010000 K
06
1L
17
1b
1M
1F
1d
02
0*
0]
b0000000000010000 H
1+
0^
1_
1B
b0000000000001110 X
1.
1&
b0000000000001110 Y
b0000000000001110 '
1E
b0000000000010000 (
0>
0?
18
1V
09
0$
1O
0P
#616
b0000000000010001 `
0F
04
0&
b0000000000010001 W
0O
b0000000000010001 ;
0_
#621
03
14
1J
15
16
0L
07
0b
0M
1F
0d
12
1*
1]
0+
1^
1_
0B
b0000000000001110 -
b0000000000010000 %
b0000000000001110 C
0.
1&
0E
1>
b0000000000010000 )
b0000000000001110 T
1?
b0000000000010000 "
b0000000000010000 @
08
0V
19
1$
1O
1P
#626
b0000000000010010 `
0F
04
0&
b0000000000010010 W
0O
b0000000000010010 ;
0_
#631
13
b0000000000010000 Q
14
b0000000000010010 R
0J
05
b0000000000010010 K
06
1L
17
1b
1M
1F
1d
02
0*
0]
b0000000000010010 H
1+
0^
1_
1B
b0000000000010000 X
1.
1&
b0000000000010000 Y
b0000000000010000 '
1E
b0000000000010010 (
0>
0?
18
1V
09
0$
1O
0P
#636
b0000000000010011 `
0F
04
0&
b0000000000010011 W
0O
b0000000000010011 ;
0_
#641
03
14
1J
15
16
0L
07
0b
0M
1F
0d
12
1*
1]
0+
1^
1_
0B
b0000000000010000 -
b0000000000010010 %
b0000000000010000 C
0.
1&
0E
1>
b0000000000010010 )
b0000000000010000 T
1?
b0000000000010010 "
b0000000000010010 @
08
0V
19
1$
1O
1P
#646
b0000000000010100 `
0F
04
0&
b0000000000010100 W
0O
b0000000000010100 ;
0_
#651
13
b0000000000010010 Q
14
b0000000000010100 R
0J
05
b0000000000010100 K
06
1L
17
1b
1M
1F
1d
02
0*
0]
b0000000000010100 H
1+
0^
1_
1B
b0000000000010010 X
1.
1&
b0000000000010010 Y
b0000000000010010 '
1E
b0000000000010100 (
0>
0?
18
1V
09
0$
1O
0P
#656
b0000000000010101 `
0F
04
0&
b0000000000010101 W
0O
b0000000000010101 ;
0_
#661
03
14
1J
15
16
0L
07
0b
0M
1F
0d
12
1*
1]
0+
1^
1_
0B
b0000000000010010 -
b0000000000010100 %
b0000000000010010 C
0.
1&
0E
1>
b0000000000010100 )
b0000000000010010 T
1?
b0000000000010100 "
b0000000000010100 @
08
0V
19
1$
1O
1P
#666
b0000000000010110 `
0F
04
0&
b0000000000010110 W
0O
b0000000000010110 ;
0_
#671
13
b0000000000010100 Q
14
b0000000000010110 R
0J
05
b0000000000010110 K
06
1L
17
1b
1M
1F
1d
02
0*
0]
b0000000000010110 H
1+
0^
1_
1B
b0000000000010100 X
1.
1&
b0000000000010100 Y
b0000000000010100 '
1E
b0000000000010110 (
0>
0?
18
1V
09
0$
1O
0P
#676
b0000000000010111 `
0F
04
0&
b0000000000010111 W
0O
b0000000000010111 ;
0_
#681
03
14
1J
15
16
0L
07
0b
0M
1F
0d
12
1*
1]
0+
1^
1_
0B
b0000000000010100 -
b0000000000010110 %
b0000000000010100 C
0.
1&
0E
1>
b0000000000010110 )
b0000000000010100 T
1?
b0000000000010110 "
b0000000000010110 @
08
0V
19
1$
1O
1P
#686
b0000000000011000 `
0F
04
0&
b0000000000011000 W
0O
b0000000000011000 ;
0_
#691
13
b0000000000010110 Q
14
b0000000000011000 R
0J
05
b0000000000011000 K
06
1L
17
1b
1M
1F
1d
02
0*
0]
b0000000000011000 H
1+
0^
1_
1B
b0000000000010110 X
1.
1&
b0000000000010110 Y
b0000000000010110 '
1E
b0000000000011000 (
0>
0?
18
1V
09
0$
1O
0P
#696
b0000000000011001 `
0F
04
0&
b0000000000011001 W
0O
b0000000000011001 ;
0_
#701
03
14
1J
15
16
0L
07
0b
0M
1F
0d
12
1*
1]
0+
1^
1_
0B
b0000000000010110 -
b0000000000011000 %
b0000000000010110 C
0.
1&
0E
1>
b0000000000011000 )
b0000000000010110 T
1?
b0000000000011000 "
b0000000000011000 @
08
0V
19
1$
1O
1P
#706
b0000000000011010 `
0F
04
0&
b0000000000011010 W
0O
b0000000000011010 ;
0_
#711
13
b0000000000011000 Q
14
b0000000000011010 R
0J
05
b0000000000011010 K
06
1L
17
1b
1M
1F
1d
02
0*
0]
b0000000000011010 H
1+
0^
1_
1B
b0000000000011000 X
1.
1&
b0000000000011000 Y
b0000000000011000 '
1E
b0000000000011010 (
0>
0?
18
1V
09
0$
1O
0P
#716
b0000000000011011 `
0F
04
0&
b0000000000011011 W
0O
b0000000000011011 ;
0_
#721
03
14
1J
15
16
0L
07
0b
0M
1F
0d
12
1*
1]
0+
1^
1_
0B
b0000000000011000 -
b0000000000011010 %
b0000000000011000 C
0.
1&
0E
1>
b0000000000011010 )
b0000000000011000 T
1?
b0000000000011010 "
b0000000000011010 @
08
0V
19
1$
1O
1P
#726
b0000000000011100 `
0F
04
0&
b0000000000011100 W
0O
b0000000000011100 ;
0_
#731
13
b0000000000011010 Q
14
b0000000000011100 R
0J
05
b0000000000011100 K
06
1L
17
1b
1M
1F
1d
02
0*
0]
b0000000000011100 H
1+
0^
1_
1B
b0000000000011010 X
1.
1&
b0000000000011010 Y
b0000000000011010 '
1E
b0000000000011100 (
0>
0?
18
1V
09
0$
1O
0P
#736
b0000000000011101 `
0F
04
0&
b0000000000011101 W
0O
b0000000000011101 ;
0_
#741
03
14
1J
15
16
0L
07
0b
0M
1F
0d
12
1*
1]
0+
1^
1_
0B
b0000000000011010 -
b0000000000011100 %
b0000000000011010 C
0.
1&
0E
1>
b0000000000011100 )
b0000000000011010 T
1?
b0000000000011100 "
b0000000000011100 @
08
0V
19
1$
1O
1P
#746
b0000000000011110 `
0F
04
0&
b0000000000011110 W
0O
b0000000000011110 ;
0_
#751
13
b0000000000011100 Q
14
b0000000000011110 R
0J
05
b0000000000011110 K
06
1L
17
1b
1M
1F
1d
02
0*
0]
b0000000000011110 H
1+
0^
1_
1B
b0000000000011100 X
1.
1&
b0000000000011100 Y
b0000000000011100 '
1E
b0000000000011110 (
0>
0?
18
1V
09
0$
1O
0P
#756
b0000000000011111 `
0F
04
0&
b0000000000011111 W
0O
b0000000000011111 ;
0_
#761
03
14
1J
15
16
0L
07
0b
0M
1F
0d
12
1*
1]
0+
1^
1_
0B
b0000000000011100 -
b0000000000011110 %
b0000000000011100 C
0.
1&
0E
1>
b0000000000011110 )
b0000000000011100 T
1?
b0000000000011110 "
b0000000000011110 @
08
0V
19
1$
1O
1P
#766
b0000000000100000 `
0F
04
0&
b0000000000100000 W
0O
b0000000000100000 ;
0_
#771
13
b0000000000011110 Q
14
b0000000000100000 R
0J
05
b0000000000100000 K
06
1L
17
1b
1M
1F
1d
02
0*
0]
b0000000000100000 H
1+
0^
1_
1B
b0000000000011110 X
1.
1&
b0000000000011110 Y
b0000000000011110 '
1E
b0000000000100000 (
0>
0?
18
1V
09
0$
1O
0P
#776
b0000000000100001 `
0F
04
0&
b0000000000100001 W
0O
b0000000000100001 ;
0_
#781
03
14
1J
15
16
0L
07
0b
0M
1F
0d
12
1*
1]
0+
1^
1_
0B
b0000000000011110 -
b0000000000100000 %
b0000000000011110 C
0.
1&
0E
1>
b0000000000100000 )
b0000000000011110 T
1?
b0000000000100000 "
b0000000000100000 @
08
0V
19
1$
1O
1P
#786
b0000000000100010 `
0F
04
0&
b0000000000100010 W
0O
b0000000000100010 ;
0_
#791
13
b0000000000100000 Q
14
b0000000000100010 R
0J
05
b0000000000100010 K
06
1L
17
1b
1M
1F
1d
02
0*
0]
b0000000000100010 H
1+
0^
1_
1B
b0000000000100000 X
1.
1&
b0000000000100000 Y
b0000000000100000 '
1E
b0000000000100010 (
0>
0?
18
1V
09
0$
1O
0P
#796
b0000000000100011 `
0F
04
0&
b0000000000100011 W
0O
b0000000000100011 ;
0_
#801
03
14
1J
15
16
0L
07
0b
0M
1F
0d
12
1*
1]
0+
1^
1_
0B
b0000000000100000 -
b0000000000100010 %
b0000000000100000 C
0.
1&
0E
1>
b0000000000100010 )
b0000000000100000 T
1?
b0000000000100010 "
b0000000000100010 @
08
0V
19
1$
1O
1P
#806
b0000000000100100 `
0F
04
0&
b0000000000100100 W
0O
b0000000000100100 ;
0_
#811
13
b0000000000100010 Q
14
b0000000000100100 R
0J
05
b0000000000100100 K
06
1L
17
1b
1M
1F
1d
02
0*
0]
b0000000000100100 H
1+
0^
1_
1B
b0000000000100010 X
1.
1&
b0000000000100010 Y
b0000000000100010 '
1E
b0000000000100100 (
0>
0?
18
1V
09
0$
1O
0P
#816
b0000000000100101 `
0F
04
0&
b0000000000100101 W
0O
b0000000000100101 ;
0_
#821
03
14
1J
15
16
0L
07
0b
0M
1F
0d
12
1*
1]
0+
1^
1_
0B
b0000000000100010 -
b0000000000100100 %
b0000000000100010 C
0.
1&
0E
1>
b0000000000100100 )
b0000000000100010 T
1?
b0000000000100100 "
b0000000000100100 @
08
0V
19
1$
1O
1P
#826
b0000000000100110 `
0F
04
0&
b0000000000100110 W
0O
b0000000000100110 ;
0_
#831
13
b0000000000100100 Q
14
b0000000000100110 R
0J
05
b0000000000100110 K
06
1L
17
1b
1M
1F
1d
02
0*
0]
b0000000000100110 H
1+
0^
1_
1B
b0000000000100100 X
1.
1&
b0000000000100100 Y
b0000000000100100 '
1E
b0000000000100110 (
0>
0?
18
1V
09
0$
1O
0P
#836
b0000000000100111 `
0F
04
0&
b0000000000100111 W
0O
b0000000000100111 ;
0_
#841
03
14
1J
15
16
0L
07
0b
0M
1F
0d
12
1*
1]
0+
1^
1_
0B
b0000000000100100 -
b0000000000100110 %
b0000000000100100 C
0.
1&
0E
1>
b0000000000100110 )
b0000000000100100 T
1?
b0000000000100110 "
b0000000000100110 @
08
0V
19
1$
1O
1P
#846
b0000000000101000 `
0F
04
0&
b0000000000101000 W
0O
b0000000000101000 ;
0_
#851
13
b0000000000100110 Q
14
b0000000000101000 R
0J
05
b0000000000101000 K
06
1L
17
1b
1M
1F
1d
02
0*
0]
b0000000000101000 H
1+
0^
1_
1B
b0000000000100110 X
1.
1&
b0000000000100110 Y
b0000000000100110 '
1E
b0000000000101000 (
0>
0?
18
1V
09
0$
1O
0P
#856
b0000000000101001 `
0F
04
0&
b0000000000101001 W
0O
b0000000000101001 ;
0_
#861
03
14
1J
15
16
0L
07
0b
0M
1F
0d
12
1*
1]
0+
1^
1_
0B
b0000000000100110 -
b0000000000101000 %
b0000000000100110 C
0.
1&
0E
1>
b0000000000101000 )
b0000000000100110 T
1?
b0000000000101000 "
b0000000000101000 @
08
0V
19
1$
1O
1P
#866
b0000000000101010 `
0F
04
0&
b0000000000101010 W
0O
b0000000000101010 ;
0_
#871
13
b0000000000101000 Q
14
b0000000000101010 R
0J
05
b0000000000101010 K
06
1L
17
1b
1M
1F
1d
02
0*
0]
b0000000000101010 H
1+
0^
1_
1B
b0000000000101000 X
1.
1&
b0000000000101000 Y
b0000000000101000 '
1E
b0000000000101010 (
0>
0?
18
1V
09
0$
1O
0P
#876
b0000000000101011 `
0F
04
0&
b0000000000101011 W
0O
b0000000000101011 ;
0_
#881
03
14
1J
15
16
0L
07
0b
0M
1F
0d
12
1*
1]
0+
1^
1_
0B
b0000000000101000 -
b0000000000101010 %
b0000000000101000 C
0.
1&
0E
1>
b0000000000101010 )
b0000000000101000 T
1?
b0000000000101010 "
b0000000000101010 @
08
0V
19
1$
1O
1P
#886
b0000000000101100 `
0F
04
0&
b0000000000101100 W
0O
b0000000000101100 ;
0_
#891
13
b0000000000101010 Q
14
b0000000000101100 R
0J
05
b0000000000101100 K
06
1L
17
1b
1M
1F
1d
02
0*
0]
b0000000000101100 H
1+
0^
1_
1B
b0000000000101010 X
1.
1&
b0000000000101010 Y
b0000000000101010 '
1E
b0000000000101100 (
0>
0?
18
1V
09
0$
1O
0P
#896
b0000000000101101 `
0F
04
0&
b0000000000101101 W
0O
b0000000000101101 ;
0_
#901
03
14
1J
15
16
0L
07
0b
0M
1F
0d
12
1*
1]
0+
1^
1_
0B
b0000000000101010 -
b0000000000101100 %
b0000000000101010 C
0.
1&
0E
1>
b0000000000101100 )
b0000000000101010 T
1?
b0000000000101100 "
b0000000000101100 @
08
0V
19
1$
1O
1P
#906
b0000000000101110 `
0F
04
0&
b0000000000101110 W
0O
b0000000000101110 ;
0_
#911
13
b0000000000101100 Q
14
b0000000000101110 R
0J
05
b0000000000101110 K
06
1L
17
1b
1M
1F
1d
02
0*
0]
b0000000000101110 H
1+
0^
1_
1B
b0000000000101100 X
1.
1&
b0000000000101100 Y
b0000000000101100 '
1E
b0000000000101110 (
0>
0?
18
1V
09
0$
1O
0P
#916
b0000000000101111 `
0F
04
0&
b0000000000101111 W
0O
b0000000000101111 ;
0_
#921
03
14
1J
15
16
0L
07
0b
0M
1F
0d
12
1*
1]
0+
1^
1_
0B
b0000000000101100 -
b0000000000101110 %
b0000000000101100 C
0.
1&
0E
1>
b0000000000101110 )
b0000000000101100 T
1?
b0000000000101110 "
b0000000000101110 @
08
0V
19
1$
1O
1P
#926
b0000000000110000 `
0F
04
0&
b0000000000110000 W
0O
b0000000000110000 ;
0_
