src/test_run_dir/BubbleFifoSpec138451617/BubbleFifo.vcd
$date
2021-02-21T02:49+0000
$end
$version
0.2
$end
$comment

$end
$timescale 1ns  $end
$scope module BubbleFifo $end
 $var wire 1 " FifoRegister_2 $end
 $var wire 1 ) FifoRegister $end
 $var wire 1 - io_enq_write $end
 $var wire 1 C io_deq_empty $end
 $var wire 1 F FifoRegister_1 $end
 $var wire 1 G io_enq_full $end
 $var wire 1 K io_deq_read $end
 $var wire 8 N io_deq_dout $end
 $var wire 1 W clock $end
 $var wire 1 ^ FifoRegister_3 $end
 $var wire 8 d io_enq_din $end
 $var wire 1 m reset $end
  $scope module FifoRegister_3 $end
   $var wire 1 ! _GEN_6 $end
   $var wire 1 $ io_enq_write $end
   $var wire 1 ( _GEN_0 $end
   $var wire 1 + io_enq_full $end
   $var wire 1 4 clock $end
   $var wire 8 7 io_enq_din $end
   $var wire 1 ; io_deq_empty $end
   $var wire 1 D _GEN_2 $end
   $var wire 8 E _GEN_5 $end
   $var wire 1 M stateReg $end
   $var wire 1 P reset $end
   $var wire 1 U _GEN_4 $end
   $var wire 8 ] _GEN_7 $end
   $var wire 8 _ _GEN_1 $end
   $var wire 1 b _T $end
   $var wire 8 s _GEN_3 $end
   $var wire 8 t dataReg $end
   $var wire 1 v io_deq_read $end
   $var wire 8 w io_deq_dout $end
  $upscope $end
  $scope module FifoRegister_1 $end
   $var wire 1 % reset $end
   $var wire 8 & _GEN_1 $end
   $var wire 1 0 _GEN_4 $end
   $var wire 8 : _GEN_7 $end
   $var wire 1 < io_enq_full $end
   $var wire 1 = io_deq_read $end
   $var wire 8 > io_deq_dout $end
   $var wire 1 H _GEN_6 $end
   $var wire 1 J io_enq_write $end
   $var wire 1 O _GEN_0 $end
   $var wire 8 T _GEN_3 $end
   $var wire 1 ` _T $end
   $var wire 1 c clock $end
   $var wire 1 e io_deq_empty $end
   $var wire 8 f dataReg $end
   $var wire 8 h _GEN_5 $end
   $var wire 1 j stateReg $end
   $var wire 1 o _GEN_2 $end
   $var wire 8 q io_enq_din $end
  $upscope $end
  $scope module FifoRegister $end
   $var wire 1 ' io_enq_full $end
   $var wire 1 * io_deq_empty $end
   $var wire 8 , dataReg $end
   $var wire 8 . io_deq_dout $end
   $var wire 1 1 io_deq_read $end
   $var wire 8 2 _GEN_3 $end
   $var wire 1 5 _GEN_6 $end
   $var wire 1 ? _GEN_0 $end
   $var wire 1 @ clock $end
   $var wire 1 R _GEN_2 $end
   $var wire 1 S _T $end
   $var wire 8 V _GEN_5 $end
   $var wire 1 X reset $end
   $var wire 1 a stateReg $end
   $var wire 8 g io_enq_din $end
   $var wire 8 k _GEN_7 $end
   $var wire 8 l _GEN_1 $end
   $var wire 1 n io_enq_write $end
   $var wire 1 x _GEN_4 $end
  $upscope $end
  $scope module FifoRegister_2 $end
   $var wire 1 # io_deq_read $end
   $var wire 1 / io_enq_full $end
   $var wire 1 3 _T $end
   $var wire 1 6 io_enq_write $end
   $var wire 8 8 io_deq_dout $end
   $var wire 1 9 _GEN_6 $end
   $var wire 1 A _GEN_0 $end
   $var wire 8 B _GEN_3 $end
   $var wire 1 I clock $end
   $var wire 8 L dataReg $end
   $var wire 1 Q _GEN_2 $end
   $var wire 1 Y io_deq_empty $end
   $var wire 8 Z _GEN_5 $end
   $var wire 8 [ io_enq_din $end
   $var wire 1 \ stateReg $end
   $var wire 8 i _GEN_7 $end
   $var wire 1 p reset $end
   $var wire 8 r _GEN_1 $end
   $var wire 1 u _GEN_4 $end
  $upscope $end
$upscope $end
$enddefinitions $end
$dumpvars
0X
0C
0;
b00000000 E
0o
0R
0=
b00000000 d
b00000000 2
b00000000 s
0"
b00000000 ,
09
0m
b00000000 &
0e
0P
b00000000 w
03
b00000000 Z
0J
b00000000 q
05
0-
b00000000 T
b00000000 7
0a
0D
b00000000 k
b00000000 V
0/
b00000000 N
0x
0c
0F
01
0)
0H
0@
b00000000 g
0+
0W
b00000000 i
0%
b00000000 L
0v
0n
0Y
0<
0'
0p
0S
06
b00000000 ]
0!
0j
0U
0M
b00000000 t
b00000000 _
0#
b00000000 B
0O
0Q
0I
04
b00000000 [
b00000000 >
0`
0K
b00000000 r
b00000000 8
0b
00
b00000000 l
0(
b00000000 :
0\
0G
0?
b00000000 f
0*
0^
0A
b00000000 h
0$
0u
b00000000 .
$end
#0
13
1`
1%
1X
1C
1Y
1S
1=
1p
1b
11
1#
1e
1*
1m
1P
1;
#1
1c
14
1@
1W
1I
#6
0c
04
0@
0W
0I
#11
1c
14
1@
1W
1I
#16
0c
04
0@
0W
0I
#21
1c
14
1@
1W
1I
#26
0c
04
0@
0W
0I
#31
1c
14
1@
1W
1I
#36
0c
04
0@
0W
0I
#41
1c
14
1@
1W
1I
#46
0c
0%
04
0X
b10101011 d
b10101011 g
0@
0W
0p
0m
0I
0P
#51
1c
14
1@
1W
1I
#56
0c
1-
1?
04
b00010010 g
0@
b00010010 d
b00010010 k
15
b00010010 l
0W
0I
1n
#61
14
b00010010 .
1J
b00010010 &
05
0S
1'
1a
b00010010 q
1c
1@
1G
b00000000 k
0*
1H
1W
1O
b00010010 :
1I
b00010010 ,
#66
0c
0-
04
b11111111 g
0@
b11111111 d
0W
0I
0n
#71
b00010010 f
1<
14
0J
1S
16
b00010010 i
0a
1j
1c
01
0G
0e
1*
0H
1I
1A
b00000000 ,
0`
b00000000 .
0'
b00010010 [
b00010010 >
b00000000 q
0?
b00010010 r
1@
19
b00000000 l
1W
b00000000 :
#76
0c
04
0@
0W
0I
#81
03
b00000000 f
0<
14
06
b00000000 i
b00010010 L
b00010010 7
0j
1/
1c
11
1e
b00010010 ]
1I
b00010010 _
1`
b00000000 &
0Y
0=
1(
b00000000 [
b00000000 >
1\
1!
1@
b00010010 8
09
1$
1W
0O
#86
0c
04
0@
0W
0I
#91
13
14
b00000000 L
b00000000 7
0/
0b
1M
1c
b00010010 N
1+
1I
0A
b00010010 t
0C
1Y
1D
b00010010 w
b00010010 E
1=
0\
b00000000 r
1U
1@
b00010010 s
b00000000 8
0#
0$
1W
0;
#96
0c
04
0@
0W
0I
#101
1c
14
1@
1W
1I
#106
0c
1-
1?
04
b10000000 g
0@
b10000000 d
b10000000 k
15
b10000000 l
0W
0I
1n
#111
14
b10000000 .
1J
b10000000 &
05
0S
1'
1a
b10000000 q
1c
1@
1G
b00000000 k
0*
1H
1W
1O
b10000000 :
1I
b10000000 ,
#116
0c
0-
04
b10000001 g
0@
b10000001 d
0W
0I
0n
#121
b10000000 f
1<
14
0J
1S
16
b10000000 i
0a
1j
1c
01
0G
0e
1*
0H
1I
1A
b00000000 ,
0`
b00000000 .
0'
b10000000 [
b10000000 >
b00000000 q
0?
b10000000 r
1@
19
b00000000 l
1W
b00000000 :
#126
0c
1-
1?
04
b10000010 g
0@
b10000010 d
b10000010 k
15
b10000010 l
0W
0I
1n
#131
03
b00000000 f
1Q
0<
14
1J
05
0S
06
1a
b10000000 L
b10000000 7
0j
1/
1c
11
1G
1e
0*
1H
1I
b10000010 ,
b10000000 _
b10000000 B
1u
1`
b10000010 .
b10000010 &
0Y
1'
b10000000 Z
0=
b00000000 [
b00000000 >
b10000010 q
1\
1@
b10000000 8
b00000000 k
1$
1W
b10000010 :
#136
0c
0-
04
b10000011 g
0@
b10000011 d
0W
0I
0n
#141
b10000010 f
1<
14
0J
b10000010 h
1S
16
0a
1j
10
1c
01
0G
0e
1*
1I
b00000000 ,
0`
b00000000 .
1o
0'
b10000010 [
b10000010 >
b00000000 q
b10000010 T
0?
b10000010 r
1@
b00000000 l
1W
#146
0c
1-
1?
04
b10000100 g
0@
b10000100 d
b10000100 k
15
b10000100 l
0W
0I
1n
#151
14
b10000100 .
1R
1J
b10000100 &
0S
1'
1x
1a
b10000100 q
1c
1@
1G
b10000100 2
b10000100 V
0*
1W
1I
b10000100 ,
#156
0c
0-
04
b10000101 g
0@
b10000101 d
0W
0I
0n
#161
1c
14
1@
1W
1I
#166
0c
04
b10000110 g
0@
b10000110 d
0W
0I
#171
1c
14
1@
1W
1I
#176
0!
0c
04
0U
1v
b00000000 s
0@
0D
1K
b00000000 ]
0W
b00000000 E
0I
#181
b00000000 B
0Q
0u
14
1C
b00000000 w
b00000000 Z
b00000000 i
1b
0M
1!
1c
b00000000 N
1@
1#
b10000000 ]
09
1W
0+
1I
b00000000 t
1;
#186
0c
04
0v
0@
0K
0W
0I
#191
13
14
b00000000 h
b10000010 i
b00000000 L
b00000000 7
0/
0b
1M
00
1c
b10000000 N
0H
1+
1I
b10000000 t
0C
1Y
1D
b10000000 w
0o
b10000000 E
1=
0\
b00000000 T
1U
1@
b10000000 s
b00000000 8
0#
19
0$
1W
b00000000 :
0;
#196
0c
04
0@
0W
0I
#201
03
b00000000 f
1Q
0<
14
0R
05
06
b10000010 L
b10000010 7
0j
1/
1c
11
b00000000 2
1e
1H
1I
b10000010 _
b10000010 B
1u
1`
0Y
b10000010 Z
0x
0=
b00000000 [
b00000000 >
1\
1@
b10000010 8
b00000000 k
b00000000 V
1$
1W
b10000100 :
#206
0c
04
0@
0W
0I
#211
b10000100 f
1<
14
0J
b10000100 h
1S
16
0a
1j
10
1c
01
0G
0e
1*
1I
b00000000 ,
0`
b00000000 .
1o
0'
b10000100 [
b10000100 >
b00000000 q
b10000100 T
0?
b10000100 r
1@
b00000000 l
1W
#216
0c
04
0@
0W
0I
#221
1c
14
1@
1W
1I
#226
0c
04
0@
0W
0I
#231
1c
14
1@
1W
1I
#236
0c
04
0@
0W
0I
#241
1c
14
1@
1W
1I
#246
0!
0c
04
0U
0@
1v
b00000000 s
0D
1K
b00000000 ]
0W
b00000000 E
0I
#251
b00000000 B
0Q
0u
14
1C
b00000000 w
b00000000 Z
b00000000 i
1b
0M
1!
1c
b00000000 N
1@
1#
b10000010 ]
09
1W
0+
1I
b00000000 t
1;
#256
0c
04
0@
0v
0K
0W
0I
#261
13
14
b00000000 h
b10000100 i
b00000000 L
b00000000 7
0/
0b
1M
00
1c
b10000010 N
0H
1+
1I
b10000010 t
0C
1Y
1D
b10000010 w
0o
b10000010 E
1=
0\
b00000000 T
1U
1@
b10000010 s
b00000000 8
0#
19
0$
1W
b00000000 :
0;
#266
0!
0c
04
0U
0@
1v
b00000000 s
0D
1K
b00000000 ]
0W
b00000000 E
0I
#271
03
b00000000 f
0<
14
06
b00000000 i
b10000100 L
b10000100 7
0j
1/
1b
0M
1c
b00000000 N
11
1e
b10000100 ]
0+
1I
b00000000 t
b10000100 _
1`
1C
b00000000 &
0Y
b00000000 w
0=
b00000000 [
b00000000 >
1\
1!
1@
b10000100 8
1#
09
1$
1W
0O
1;
#276
0c
04
0@
0v
0K
0W
0I
#281
13
14
b00000000 L
b00000000 7
0/
0b
1M
1c
b10000100 N
1+
1I
0A
b10000100 t
0C
1Y
1D
b10000100 w
b10000100 E
1=
0\
b00000000 r
1U
1@
b10000100 s
b00000000 8
0#
0$
1W
0;
#286
0!
0c
04
0U
0@
1v
b00000000 s
0D
1K
b00000000 ]
0W
b00000000 E
0I
#291
14
1C
b00000000 w
0(
1b
0M
1c
b00000000 N
1@
1#
1W
0+
1I
b00000000 t
b00000000 _
1;
#296
0c
04
0@
0v
0K
0W
0I
#301
1c
14
1@
1W
1I
#306
0c
04
0@
0W
0I
#311
1c
14
1@
1W
1I
#316
0c
1-
1?
04
b00000001 g
0@
b00000001 d
b00000001 k
15
b00000001 l
0W
0I
1n
#321
14
b00000001 .
1J
b00000001 &
05
0S
1'
1a
b00000001 q
1c
1@
1G
b00000000 k
0*
1H
1W
1O
b00000001 :
1I
b00000001 ,
#326
0c
0-
04
b00000010 g
0@
b00000010 d
0W
0I
0n
#331
b00000001 f
1<
14
0J
1S
16
b00000001 i
0a
1j
1c
01
0G
0e
1*
0H
1I
1A
b00000000 ,
0`
b00000000 .
0'
b00000001 [
b00000001 >
b00000000 q
0?
b00000001 r
1@
19
b00000000 l
1W
b00000000 :
#336
0c
1-
1?
04
b00000011 g
0@
b00000011 d
b00000011 k
15
b00000011 l
0W
0I
1n
#341
03
b00000000 f
0<
14
1J
05
0S
06
b00000000 i
1a
b00000001 L
b00000001 7
0j
1/
1c
11
1G
1e
0*
b00000001 ]
1H
1I
b00000011 ,
b00000001 _
1`
b00000011 .
b00000011 &
0Y
1'
0=
1(
b00000000 [
b00000000 >
b00000011 q
1\
1!
1@
b00000001 8
b00000000 k
09
1$
1W
b00000011 :
#346
0c
0-
04
b00000100 g
0@
b00000100 d
0W
0I
0n
#351
13
b00000011 f
1<
14
0J
1S
16
b00000011 i
0a
b00000000 L
b00000000 7
1j
0/
0b
1M
1c
b00000001 N
01
0G
0e
1*
0H
1+
1I
b00000001 t
b00000000 ,
0`
0C
b00000000 .
1Y
1D
b00000001 w
0'
b00000001 E
1=
b00000011 [
b00000011 >
b00000000 q
0\
0?
b00000011 r
1U
1@
b00000001 s
b00000000 8
0#
19
0$
1W
b00000000 l
b00000000 :
0;
#356
1-
04
b00000101 g
1v
15
0D
1K
b00000000 E
0!
0c
1?
0U
0@
b00000101 d
b00000000 s
b00000101 k
b00000000 ]
b00000101 l
0W
0I
1n
#361
03
b00000000 f
0<
14
1J
05
0S
06
b00000000 i
1a
b00000011 L
b00000011 7
0j
1/
1b
0M
1c
b00000000 N
11
1G
1e
0*
b00000011 ]
1H
0+
1I
b00000000 t
b00000011 _
b00000101 ,
1`
1C
b00000101 .
b00000101 &
0Y
b00000000 w
1'
0=
b00000000 [
b00000000 >
b00000101 q
1\
1!
1@
b00000011 8
1#
b00000000 k
09
1$
1W
b00000101 :
1;
#366
0c
0-
04
b00000110 g
0@
b00000110 d
0v
0K
0W
0I
0n
#371
13
b00000101 f
1<
14
0J
1S
16
b00000101 i
0a
b00000000 L
b00000000 7
1j
0/
0b
1M
1c
b00000011 N
01
0G
0e
1*
0H
1+
1I
b00000011 t
b00000000 ,
0`
0C
b00000000 .
1Y
1D
b00000011 w
0'
b00000011 E
1=
b00000101 [
b00000101 >
b00000000 q
0\
0?
b00000101 r
1U
1@
b00000011 s
b00000000 8
0#
19
0$
1W
b00000000 l
b00000000 :
0;
#376
1-
04
b00000111 g
1v
15
0D
1K
b00000000 E
0!
0c
1?
0U
0@
b00000111 d
b00000000 s
b00000111 k
b00000000 ]
b00000111 l
0W
0I
1n
#381
03
b00000000 f
0<
14
1J
05
0S
06
b00000000 i
1a
b00000101 L
b00000101 7
0j
1/
1b
0M
1c
b00000000 N
11
1G
1e
0*
b00000101 ]
1H
0+
1I
b00000000 t
b00000101 _
b00000111 ,
1`
1C
b00000111 .
b00000111 &
0Y
b00000000 w
1'
0=
b00000000 [
b00000000 >
b00000111 q
1\
1!
1@
b00000101 8
1#
b00000000 k
09
1$
1W
b00000111 :
1;
#386
0c
0-
04
b00001000 g
0@
b00001000 d
0v
0K
0W
0I
0n
#391
13
b00000111 f
1<
14
0J
1S
16
b00000111 i
0a
b00000000 L
b00000000 7
1j
0/
0b
1M
1c
b00000101 N
01
0G
0e
1*
0H
1+
1I
b00000101 t
b00000000 ,
0`
0C
b00000000 .
1Y
1D
b00000101 w
0'
b00000101 E
1=
b00000111 [
b00000111 >
b00000000 q
0\
0?
b00000111 r
1U
1@
b00000101 s
b00000000 8
0#
19
0$
1W
b00000000 l
b00000000 :
0;
#396
1-
04
b00001001 g
1v
15
0D
1K
b00000000 E
0!
0c
1?
0U
0@
b00001001 d
b00000000 s
b00001001 k
b00000000 ]
b00001001 l
0W
0I
1n
#401
03
b00000000 f
0<
14
1J
05
0S
06
b00000000 i
1a
b00000111 L
b00000111 7
0j
1/
1b
0M
1c
b00000000 N
11
1G
1e
0*
b00000111 ]
1H
0+
1I
b00000000 t
b00000111 _
b00001001 ,
1`
1C
b00001001 .
b00001001 &
0Y
b00000000 w
1'
0=
b00000000 [
b00000000 >
b00001001 q
1\
1!
1@
b00000111 8
1#
b00000000 k
09
1$
1W
b00001001 :
1;
#406
0c
0-
04
b00001010 g
0@
b00001010 d
0v
0K
0W
0I
0n
#411
13
b00001001 f
1<
14
0J
1S
16
b00001001 i
0a
b00000000 L
b00000000 7
1j
0/
0b
1M
1c
b00000111 N
01
0G
0e
1*
0H
1+
1I
b00000111 t
b00000000 ,
0`
0C
b00000000 .
1Y
1D
b00000111 w
0'
b00000111 E
1=
b00001001 [
b00001001 >
b00000000 q
0\
0?
b00001001 r
1U
1@
b00000111 s
b00000000 8
0#
19
0$
1W
b00000000 l
b00000000 :
0;
#416
1-
04
b00001011 g
1v
15
0D
1K
b00000000 E
0!
0c
1?
0U
0@
b00001011 d
b00000000 s
b00001011 k
b00000000 ]
b00001011 l
0W
0I
1n
#421
03
b00000000 f
0<
14
1J
05
0S
06
b00000000 i
1a
b00001001 L
b00001001 7
0j
1/
1b
0M
1c
b00000000 N
11
1G
1e
0*
b00001001 ]
1H
0+
1I
b00000000 t
b00001001 _
b00001011 ,
1`
1C
b00001011 .
b00001011 &
0Y
b00000000 w
1'
0=
b00000000 [
b00000000 >
b00001011 q
1\
1!
1@
b00001001 8
1#
b00000000 k
09
1$
1W
b00001011 :
1;
#426
0c
0-
04
b00001100 g
0@
b00001100 d
0v
0K
0W
0I
0n
#431
13
b00001011 f
1<
14
0J
1S
16
b00001011 i
0a
b00000000 L
b00000000 7
1j
0/
0b
1M
1c
b00001001 N
01
0G
0e
1*
0H
1+
1I
b00001001 t
b00000000 ,
0`
0C
b00000000 .
1Y
1D
b00001001 w
0'
b00001001 E
1=
b00001011 [
b00001011 >
b00000000 q
0\
0?
b00001011 r
1U
1@
b00001001 s
b00000000 8
0#
19
0$
1W
b00000000 l
b00000000 :
0;
#436
1-
04
b00001101 g
1v
15
0D
1K
b00000000 E
0!
0c
1?
0U
0@
b00001101 d
b00000000 s
b00001101 k
b00000000 ]
b00001101 l
0W
0I
1n
#441
03
b00000000 f
0<
14
1J
05
0S
06
b00000000 i
1a
b00001011 L
b00001011 7
0j
1/
1b
0M
1c
b00000000 N
11
1G
1e
0*
b00001011 ]
1H
0+
1I
b00000000 t
b00001011 _
b00001101 ,
1`
1C
b00001101 .
b00001101 &
0Y
b00000000 w
1'
0=
b00000000 [
b00000000 >
b00001101 q
1\
1!
1@
b00001011 8
1#
b00000000 k
09
1$
1W
b00001101 :
1;
#446
0c
0-
04
b00001110 g
0@
b00001110 d
0v
0K
0W
0I
0n
#451
13
b00001101 f
1<
14
0J
1S
16
b00001101 i
0a
b00000000 L
b00000000 7
1j
0/
0b
1M
1c
b00001011 N
01
0G
0e
1*
0H
1+
1I
b00001011 t
b00000000 ,
0`
0C
b00000000 .
1Y
1D
b00001011 w
0'
b00001011 E
1=
b00001101 [
b00001101 >
b00000000 q
0\
0?
b00001101 r
1U
1@
b00001011 s
b00000000 8
0#
19
0$
1W
b00000000 l
b00000000 :
0;
#456
1-
04
b00001111 g
1v
15
0D
1K
b00000000 E
0!
0c
1?
0U
0@
b00001111 d
b00000000 s
b00001111 k
b00000000 ]
b00001111 l
0W
0I
1n
#461
03
b00000000 f
0<
14
1J
05
0S
06
b00000000 i
1a
b00001101 L
b00001101 7
0j
1/
1b
0M
1c
b00000000 N
11
1G
1e
0*
b00001101 ]
1H
0+
1I
b00000000 t
b00001101 _
b00001111 ,
1`
1C
b00001111 .
b00001111 &
0Y
b00000000 w
1'
0=
b00000000 [
b00000000 >
b00001111 q
1\
1!
1@
b00001101 8
1#
b00000000 k
09
1$
1W
b00001111 :
1;
