src/test_run_dir/DebounceSpec1463838703/Debounce.vcd
$date
2021-02-21T02:50+0000
$end
$version
0.2
$end
$comment

$end
$timescale 1ns  $end
$scope module Debounce $end
 $var wire 3 ! _GEN_2 $end
 $var wire 1 " REG $end
 $var wire 33 # _T $end
 $var wire 32 $ cntReg $end
 $var wire 8 % io_sw $end
 $var wire 1 & io_btnU $end
 $var wire 8 ' io_led $end
 $var wire 1 ( REG_1 $end
 $var wire 1 ) tick $end
 $var wire 1 * btnDebReg $end
 $var wire 1 + btnSync $end
 $var wire 1 , clock $end
 $var wire 1 - btnClean $end
 $var wire 1 . risingEdge $end
 $var wire 2 / hi $end
 $var wire 3 0 shiftReg $end
 $var wire 32 1 _GEN_0 $end
 $var wire 8 2 reg $end
 $var wire 1 3 reset $end
 $var wire 8 4 _GEN_3 $end
$upscope $end
$enddefinitions $end
$dumpvars
0&
b000000000000000000000000000000000 #
0-
0.
b00 /
b00000000 2
b00000000000000000000000000000000 1
0(
0"
0)
0*
b00000000 %
b00000000 4
0+
b00000000000000000000000000000000 $
0,
03
b00000000 '
b000 !
b000 0
$end
#0
13
b00000000000000000000000000000001 1
b000000000000000000000000000000001 #
#1
1,
#6
0,
#11
1,
#16
0,
#21
1,
#26
0,
#31
1,
#36
0,
#41
1,
#46
03
0,
#51
b00000000000000000000000000000010 1
b000000000000000000000000000000010 #
b00000000000000000000000000000001 $
1,
#56
0,
#61
b00000000000000000000000000000011 1
b000000000000000000000000000000011 #
b00000000000000000000000000000010 $
1,
#66
0,
#71
b00000000000000000000000000000100 1
b000000000000000000000000000000100 #
b00000000000000000000000000000011 $
1,
#76
0,
#81
b00000000000000000000000000000101 1
b000000000000000000000000000000101 #
b00000000000000000000000000000100 $
1,
#86
0,
#91
b00000000000000000000000000000110 1
b000000000000000000000000000000110 #
b00000000000000000000000000000101 $
1,
#96
0,
#101
b00000000000000000000000000000111 1
b000000000000000000000000000000111 #
b00000000000000000000000000000110 $
1,
#106
0,
#111
b00000000000000000000000000001000 1
b000000000000000000000000000001000 #
b00000000000000000000000000000111 $
1,
#116
0,
#121
b00000000000000000000000000001001 1
b000000000000000000000000000001001 #
b00000000000000000000000000001000 $
1,
#126
0,
#131
b00000000000000000000000000001010 1
b000000000000000000000000000001010 #
b00000000000000000000000000001001 $
1,
#136
0,
#141
b00000000000000000000000000001011 1
b000000000000000000000000000001011 #
b00000000000000000000000000001010 $
1,
#146
0,
#151
b00000000000000000000000000001100 1
b000000000000000000000000000001100 #
b00000000000000000000000000001011 $
1,
#156
0,
#161
b00000000000000000000000000001101 1
b000000000000000000000000000001101 #
b00000000000000000000000000001100 $
1,
#166
0,
#171
b00000000000000000000000000001110 1
b000000000000000000000000000001110 #
b00000000000000000000000000001101 $
1,
#176
0,
#181
b00000000000000000000000000001111 1
b000000000000000000000000000001111 #
b00000000000000000000000000001110 $
1,
#186
0,
#191
b00000000000000000000000000010000 1
b000000000000000000000000000010000 #
b00000000000000000000000000001111 $
1,
#196
0,
#201
b00000000000000000000000000010001 1
b000000000000000000000000000010001 #
b00000000000000000000000000010000 $
1,
#206
0,
#211
b00000000000000000000000000010010 1
b000000000000000000000000000010010 #
b00000000000000000000000000010001 $
1,
#216
0,
#221
b00000000000000000000000000010011 1
b000000000000000000000000000010011 #
b00000000000000000000000000010010 $
1,
#226
0,
#231
b00000000000000000000000000010100 1
b000000000000000000000000000010100 #
b00000000000000000000000000010011 $
1,
#236
0,
#241
b00000000000000000000000000010101 1
b000000000000000000000000000010101 #
b00000000000000000000000000010100 $
1,
#246
0,
#251
b00000000000000000000000000010110 1
b000000000000000000000000000010110 #
b00000000000000000000000000010101 $
1,
#256
0,
#261
b00000000000000000000000000010111 1
b000000000000000000000000000010111 #
b00000000000000000000000000010110 $
1,
#266
0,
#271
b00000000000000000000000000011000 1
b000000000000000000000000000011000 #
b00000000000000000000000000010111 $
1,
#276
0,
#281
b00000000000000000000000000011001 1
b000000000000000000000000000011001 #
b00000000000000000000000000011000 $
1,
#286
0,
#291
b00000000000000000000000000011010 1
b000000000000000000000000000011010 #
b00000000000000000000000000011001 $
1,
#296
0,
#301
b00000000000000000000000000011011 1
b000000000000000000000000000011011 #
b00000000000000000000000000011010 $
1,
#306
0,
#311
b00000000000000000000000000011100 1
b000000000000000000000000000011100 #
b00000000000000000000000000011011 $
1,
#316
0,
#321
b00000000000000000000000000011101 1
b000000000000000000000000000011101 #
b00000000000000000000000000011100 $
1,
#326
0,
#331
b00000000000000000000000000011110 1
b000000000000000000000000000011110 #
b00000000000000000000000000011101 $
1,
#336
0,
#341
b00000000000000000000000000011111 1
b000000000000000000000000000011111 #
b00000000000000000000000000011110 $
1,
#346
0,
#351
b00000000000000000000000000100000 1
b000000000000000000000000000100000 #
b00000000000000000000000000011111 $
1,
#356
0,
#361
b00000000000000000000000000100001 1
b000000000000000000000000000100001 #
b00000000000000000000000000100000 $
1,
#366
0,
#371
b00000000000000000000000000100010 1
b000000000000000000000000000100010 #
b00000000000000000000000000100001 $
1,
#376
0,
#381
b00000000000000000000000000100011 1
b000000000000000000000000000100011 #
b00000000000000000000000000100010 $
1,
#386
0,
#391
b00000000000000000000000000100100 1
b000000000000000000000000000100100 #
b00000000000000000000000000100011 $
1,
#396
0,
#401
b00000000000000000000000000100101 1
b000000000000000000000000000100101 #
b00000000000000000000000000100100 $
1,
#406
1&
0,
#411
1"
b00000000000000000000000000100110 1
b000000000000000000000000000100110 #
b00000000000000000000000000100101 $
1,
#416
0,
#421
b00000000000000000000000000100111 1
b000000000000000000000000000100111 #
b00000000000000000000000000100110 $
1+
1,
#426
0,
#431
b00000000000000000000000000101000 1
b000000000000000000000000000101000 #
b00000000000000000000000000100111 $
1,
#436
0&
0,
#441
0"
b00000000000000000000000000101001 1
b000000000000000000000000000101001 #
b00000000000000000000000000101000 $
1,
#446
0,
#451
b00000000000000000000000000101010 1
b000000000000000000000000000101010 #
b00000000000000000000000000101001 $
0+
1,
#456
0,
#461
b00000000000000000000000000101011 1
b000000000000000000000000000101011 #
b00000000000000000000000000101010 $
1,
#466
1&
0,
#471
1"
b00000000000000000000000000101100 1
b000000000000000000000000000101100 #
b00000000000000000000000000101011 $
1,
#476
0,
#481
b00000000000000000000000000101101 1
b000000000000000000000000000101101 #
b00000000000000000000000000101100 $
1+
1,
#486
0,
#491
b00000000000000000000000000101110 1
b000000000000000000000000000101110 #
b00000000000000000000000000101101 $
1,
#496
0,
#501
b00000000000000000000000000101111 1
b000000000000000000000000000101111 #
b00000000000000000000000000101110 $
1,
#506
0,
#511
b00000000000000000000000000110000 1
b000000000000000000000000000110000 #
b00000000000000000000000000101111 $
1,
#516
0,
#521
b00000000000000000000000000110001 1
b000000000000000000000000000110001 #
b00000000000000000000000000110000 $
1,
#526
0,
#531
b00000000000000000000000000110010 1
b000000000000000000000000000110010 #
b00000000000000000000000000110001 $
1,
#536
0,
#541
b00000000000000000000000000110011 1
b000000000000000000000000000110011 #
b00000000000000000000000000110010 $
1,
#546
0,
#551
b00000000000000000000000000110100 1
b000000000000000000000000000110100 #
b00000000000000000000000000110011 $
1,
#556
0,
#561
b00000000000000000000000000110101 1
b000000000000000000000000000110101 #
b00000000000000000000000000110100 $
1,
#566
0,
#571
b00000000000000000000000000110110 1
b000000000000000000000000000110110 #
b00000000000000000000000000110101 $
1,
#576
0,
#581
b00000000000000000000000000110111 1
b000000000000000000000000000110111 #
b00000000000000000000000000110110 $
1,
#586
0,
#591
b00000000000000000000000000111000 1
b000000000000000000000000000111000 #
b00000000000000000000000000110111 $
1,
#596
0,
#601
b00000000000000000000000000111001 1
b000000000000000000000000000111001 #
b00000000000000000000000000111000 $
1,
#606
0,
#611
b00000000000000000000000000111010 1
b000000000000000000000000000111010 #
b00000000000000000000000000111001 $
1,
#616
0,
#621
b00000000000000000000000000111011 1
b000000000000000000000000000111011 #
b00000000000000000000000000111010 $
1,
#626
0,
#631
b00000000000000000000000000111100 1
b000000000000000000000000000111100 #
b00000000000000000000000000111011 $
1,
#636
0,
#641
b00000000000000000000000000111101 1
b000000000000000000000000000111101 #
b00000000000000000000000000111100 $
1,
#646
0,
#651
b00000000000000000000000000111110 1
b000000000000000000000000000111110 #
b00000000000000000000000000111101 $
1,
#656
0,
#661
b00000000000000000000000000111111 1
b000000000000000000000000000111111 #
b00000000000000000000000000111110 $
1,
#666
0,
#671
b00000000000000000000000001000000 1
b000000000000000000000000001000000 #
b00000000000000000000000000111111 $
1,
#676
0,
#681
b00000000000000000000000001000001 1
b000000000000000000000000001000001 #
b00000000000000000000000001000000 $
1,
#686
0,
#691
b00000000000000000000000001000010 1
b000000000000000000000000001000010 #
b00000000000000000000000001000001 $
1,
#696
0,
#701
b00000000000000000000000001000011 1
b000000000000000000000000001000011 #
b00000000000000000000000001000010 $
1,
#706
0,
#711
b00000000000000000000000001000100 1
b000000000000000000000000001000100 #
b00000000000000000000000001000011 $
1,
#716
0,
#721
b00000000000000000000000001000101 1
b000000000000000000000000001000101 #
b00000000000000000000000001000100 $
1,
#726
0,
#731
b00000000000000000000000001000110 1
b000000000000000000000000001000110 #
b00000000000000000000000001000101 $
1,
#736
0,
#741
b00000000000000000000000001000111 1
b000000000000000000000000001000111 #
b00000000000000000000000001000110 $
1,
#746
0,
#751
b00000000000000000000000001001000 1
b000000000000000000000000001001000 #
b00000000000000000000000001000111 $
1,
#756
0,
#761
b00000000000000000000000001001001 1
b000000000000000000000000001001001 #
b00000000000000000000000001001000 $
1,
#766
0,
#771
b00000000000000000000000001001010 1
b000000000000000000000000001001010 #
b00000000000000000000000001001001 $
1,
#776
0,
#781
b00000000000000000000000001001011 1
b000000000000000000000000001001011 #
b00000000000000000000000001001010 $
1,
#786
0,
#791
b00000000000000000000000001001100 1
b000000000000000000000000001001100 #
b00000000000000000000000001001011 $
1,
#796
0,
#801
b00000000000000000000000001001101 1
b000000000000000000000000001001101 #
b00000000000000000000000001001100 $
1,
#806
0,
#811
b00000000000000000000000001001110 1
b000000000000000000000000001001110 #
b00000000000000000000000001001101 $
1,
#816
0,
#821
b00000000000000000000000001001111 1
b000000000000000000000000001001111 #
b00000000000000000000000001001110 $
1,
#826
0,
#831
b00000000000000000000000001010000 1
b000000000000000000000000001010000 #
b00000000000000000000000001001111 $
1,
#836
0,
#841
b00000000000000000000000001010001 1
b000000000000000000000000001010001 #
b00000000000000000000000001010000 $
1,
#846
0,
#851
b00000000000000000000000001010010 1
b000000000000000000000000001010010 #
b00000000000000000000000001010001 $
1,
#856
0,
#861
b00000000000000000000000001010011 1
b000000000000000000000000001010011 #
b00000000000000000000000001010010 $
1,
#866
0,
#871
b00000000000000000000000001010100 1
b000000000000000000000000001010100 #
b00000000000000000000000001010011 $
1,
#876
0,
#881
b00000000000000000000000001010101 1
b000000000000000000000000001010101 #
b00000000000000000000000001010100 $
1,
#886
0,
#891
b00000000000000000000000001010110 1
b000000000000000000000000001010110 #
b00000000000000000000000001010101 $
1,
#896
0,
#901
b00000000000000000000000001010111 1
b000000000000000000000000001010111 #
b00000000000000000000000001010110 $
1,
#906
0,
#911
b00000000000000000000000001011000 1
b000000000000000000000000001011000 #
b00000000000000000000000001010111 $
1,
#916
0,
#921
b00000000000000000000000001011001 1
b000000000000000000000000001011001 #
b00000000000000000000000001011000 $
1,
#926
0,
#931
b00000000000000000000000001011010 1
b000000000000000000000000001011010 #
b00000000000000000000000001011001 $
1,
#936
0,
#941
b00000000000000000000000001011011 1
b000000000000000000000000001011011 #
b00000000000000000000000001011010 $
1,
#946
0,
#951
b00000000000000000000000001011100 1
b000000000000000000000000001011100 #
b00000000000000000000000001011011 $
1,
#956
0,
#961
b00000000000000000000000001011101 1
b000000000000000000000000001011101 #
b00000000000000000000000001011100 $
1,
#966
0,
#971
b00000000000000000000000001011110 1
b000000000000000000000000001011110 #
b00000000000000000000000001011101 $
1,
#976
0,
#981
b00000000000000000000000001011111 1
b000000000000000000000000001011111 #
b00000000000000000000000001011110 $
1,
#986
0,
#991
b00000000000000000000000001100000 1
b000000000000000000000000001100000 #
b00000000000000000000000001011111 $
1,
#996
0,
#1001
b00000000000000000000000001100001 1
b000000000000000000000000001100001 #
b00000000000000000000000001100000 $
1,
#1006
0,
#1011
b00000000000000000000000001100010 1
b000000000000000000000000001100010 #
b00000000000000000000000001100001 $
1,
#1016
0,
#1021
b00000000000000000000000001100011 1
b000000000000000000000000001100011 #
b00000000000000000000000001100010 $
1,
#1026
0,
#1031
b00000000000000000000000000000000 1
b000000000000000000000000001100100 #
b00000000000000000000000001100011 $
1,
1)
#1036
0,
#1041
b00000000000000000000000000000001 1
b000000000000000000000000000000001 #
1*
b00000000000000000000000000000000 $
1,
0)
#1046
0,
#1051
b00000000000000000000000000000010 1
b000000000000000000000000000000010 #
b00000000000000000000000000000001 $
1,
#1056
0,
#1061
b00000000000000000000000000000011 1
b000000000000000000000000000000011 #
b00000000000000000000000000000010 $
1,
#1066
0,
#1071
b00000000000000000000000000000100 1
b000000000000000000000000000000100 #
b00000000000000000000000000000011 $
1,
#1076
0,
#1081
b00000000000000000000000000000101 1
b000000000000000000000000000000101 #
b00000000000000000000000000000100 $
1,
#1086
0,
#1091
b00000000000000000000000000000110 1
b000000000000000000000000000000110 #
b00000000000000000000000000000101 $
1,
#1096
0,
#1101
b00000000000000000000000000000111 1
b000000000000000000000000000000111 #
b00000000000000000000000000000110 $
1,
#1106
0,
#1111
b00000000000000000000000000001000 1
b000000000000000000000000000001000 #
b00000000000000000000000000000111 $
1,
#1116
0,
#1121
b00000000000000000000000000001001 1
b000000000000000000000000000001001 #
b00000000000000000000000000001000 $
1,
#1126
0,
#1131
b00000000000000000000000000001010 1
b000000000000000000000000000001010 #
b00000000000000000000000000001001 $
1,
#1136
0,
#1141
b00000000000000000000000000001011 1
b000000000000000000000000000001011 #
b00000000000000000000000000001010 $
1,
#1146
0,
#1151
b00000000000000000000000000001100 1
b000000000000000000000000000001100 #
b00000000000000000000000000001011 $
1,
#1156
0,
#1161
b00000000000000000000000000001101 1
b000000000000000000000000000001101 #
b00000000000000000000000000001100 $
1,
#1166
0,
#1171
b00000000000000000000000000001110 1
b000000000000000000000000000001110 #
b00000000000000000000000000001101 $
1,
#1176
0,
#1181
b00000000000000000000000000001111 1
b000000000000000000000000000001111 #
b00000000000000000000000000001110 $
1,
#1186
0,
#1191
b00000000000000000000000000010000 1
b000000000000000000000000000010000 #
b00000000000000000000000000001111 $
1,
#1196
0,
#1201
b00000000000000000000000000010001 1
b000000000000000000000000000010001 #
b00000000000000000000000000010000 $
1,
#1206
0,
#1211
b00000000000000000000000000010010 1
b000000000000000000000000000010010 #
b00000000000000000000000000010001 $
1,
#1216
0,
#1221
b00000000000000000000000000010011 1
b000000000000000000000000000010011 #
b00000000000000000000000000010010 $
1,
#1226
0,
#1231
b00000000000000000000000000010100 1
b000000000000000000000000000010100 #
b00000000000000000000000000010011 $
1,
#1236
0,
#1241
b00000000000000000000000000010101 1
b000000000000000000000000000010101 #
b00000000000000000000000000010100 $
1,
#1246
0,
#1251
b00000000000000000000000000010110 1
b000000000000000000000000000010110 #
b00000000000000000000000000010101 $
1,
#1256
0,
#1261
b00000000000000000000000000010111 1
b000000000000000000000000000010111 #
b00000000000000000000000000010110 $
1,
#1266
0,
#1271
b00000000000000000000000000011000 1
b000000000000000000000000000011000 #
b00000000000000000000000000010111 $
1,
#1276
0,
#1281
b00000000000000000000000000011001 1
b000000000000000000000000000011001 #
b00000000000000000000000000011000 $
1,
#1286
0,
#1291
b00000000000000000000000000011010 1
b000000000000000000000000000011010 #
b00000000000000000000000000011001 $
1,
#1296
0,
#1301
b00000000000000000000000000011011 1
b000000000000000000000000000011011 #
b00000000000000000000000000011010 $
1,
#1306
0,
#1311
b00000000000000000000000000011100 1
b000000000000000000000000000011100 #
b00000000000000000000000000011011 $
1,
#1316
0,
#1321
b00000000000000000000000000011101 1
b000000000000000000000000000011101 #
b00000000000000000000000000011100 $
1,
#1326
0,
#1331
b00000000000000000000000000011110 1
b000000000000000000000000000011110 #
b00000000000000000000000000011101 $
1,
#1336
0,
#1341
b00000000000000000000000000011111 1
b000000000000000000000000000011111 #
b00000000000000000000000000011110 $
1,
#1346
0,
#1351
b00000000000000000000000000100000 1
b000000000000000000000000000100000 #
b00000000000000000000000000011111 $
1,
#1356
0,
#1361
b00000000000000000000000000100001 1
b000000000000000000000000000100001 #
b00000000000000000000000000100000 $
1,
#1366
0,
#1371
b00000000000000000000000000100010 1
b000000000000000000000000000100010 #
b00000000000000000000000000100001 $
1,
#1376
0,
#1381
b00000000000000000000000000100011 1
b000000000000000000000000000100011 #
b00000000000000000000000000100010 $
1,
#1386
0,
#1391
b00000000000000000000000000100100 1
b000000000000000000000000000100100 #
b00000000000000000000000000100011 $
1,
#1396
0,
#1401
b00000000000000000000000000100101 1
b000000000000000000000000000100101 #
b00000000000000000000000000100100 $
1,
#1406
0,
#1411
b00000000000000000000000000100110 1
b000000000000000000000000000100110 #
b00000000000000000000000000100101 $
1,
#1416
0,
#1421
b00000000000000000000000000100111 1
b000000000000000000000000000100111 #
b00000000000000000000000000100110 $
1,
#1426
0,
#1431
b00000000000000000000000000101000 1
b000000000000000000000000000101000 #
b00000000000000000000000000100111 $
1,
#1436
0,
#1441
b00000000000000000000000000101001 1
b000000000000000000000000000101001 #
b00000000000000000000000000101000 $
1,
#1446
0,
#1451
b00000000000000000000000000101010 1
b000000000000000000000000000101010 #
b00000000000000000000000000101001 $
1,
#1456
0,
#1461
b00000000000000000000000000101011 1
b000000000000000000000000000101011 #
b00000000000000000000000000101010 $
1,
#1466
0,
#1471
b00000000000000000000000000101100 1
b000000000000000000000000000101100 #
b00000000000000000000000000101011 $
1,
#1476
0,
#1481
b00000000000000000000000000101101 1
b000000000000000000000000000101101 #
b00000000000000000000000000101100 $
1,
#1486
0,
#1491
b00000000000000000000000000101110 1
b000000000000000000000000000101110 #
b00000000000000000000000000101101 $
1,
#1496
0,
#1501
b00000000000000000000000000101111 1
b000000000000000000000000000101111 #
b00000000000000000000000000101110 $
1,
#1506
0,
#1511
b00000000000000000000000000110000 1
b000000000000000000000000000110000 #
b00000000000000000000000000101111 $
1,
#1516
0,
#1521
b00000000000000000000000000110001 1
b000000000000000000000000000110001 #
b00000000000000000000000000110000 $
1,
#1526
0,
#1531
b00000000000000000000000000110010 1
b000000000000000000000000000110010 #
b00000000000000000000000000110001 $
1,
#1536
0,
#1541
b00000000000000000000000000110011 1
b000000000000000000000000000110011 #
b00000000000000000000000000110010 $
1,
#1546
0,
#1551
b00000000000000000000000000110100 1
b000000000000000000000000000110100 #
b00000000000000000000000000110011 $
1,
#1556
0,
#1561
b00000000000000000000000000110101 1
b000000000000000000000000000110101 #
b00000000000000000000000000110100 $
1,
#1566
0,
#1571
b00000000000000000000000000110110 1
b000000000000000000000000000110110 #
b00000000000000000000000000110101 $
1,
#1576
0,
#1581
b00000000000000000000000000110111 1
b000000000000000000000000000110111 #
b00000000000000000000000000110110 $
1,
#1586
0,
#1591
b00000000000000000000000000111000 1
b000000000000000000000000000111000 #
b00000000000000000000000000110111 $
1,
#1596
0,
#1601
b00000000000000000000000000111001 1
b000000000000000000000000000111001 #
b00000000000000000000000000111000 $
1,
#1606
0,
#1611
b00000000000000000000000000111010 1
b000000000000000000000000000111010 #
b00000000000000000000000000111001 $
1,
#1616
0,
#1621
b00000000000000000000000000111011 1
b000000000000000000000000000111011 #
b00000000000000000000000000111010 $
1,
#1626
0,
#1631
b00000000000000000000000000111100 1
b000000000000000000000000000111100 #
b00000000000000000000000000111011 $
1,
#1636
0,
#1641
b00000000000000000000000000111101 1
b000000000000000000000000000111101 #
b00000000000000000000000000111100 $
1,
#1646
0,
#1651
b00000000000000000000000000111110 1
b000000000000000000000000000111110 #
b00000000000000000000000000111101 $
1,
#1656
0,
#1661
b00000000000000000000000000111111 1
b000000000000000000000000000111111 #
b00000000000000000000000000111110 $
1,
#1666
0,
#1671
b00000000000000000000000001000000 1
b000000000000000000000000001000000 #
b00000000000000000000000000111111 $
1,
#1676
0,
#1681
b00000000000000000000000001000001 1
b000000000000000000000000001000001 #
b00000000000000000000000001000000 $
1,
#1686
0,
#1691
b00000000000000000000000001000010 1
b000000000000000000000000001000010 #
b00000000000000000000000001000001 $
1,
#1696
0,
#1701
b00000000000000000000000001000011 1
b000000000000000000000000001000011 #
b00000000000000000000000001000010 $
1,
#1706
0,
#1711
b00000000000000000000000001000100 1
b000000000000000000000000001000100 #
b00000000000000000000000001000011 $
1,
#1716
0,
#1721
b00000000000000000000000001000101 1
b000000000000000000000000001000101 #
b00000000000000000000000001000100 $
1,
#1726
0,
#1731
b00000000000000000000000001000110 1
b000000000000000000000000001000110 #
b00000000000000000000000001000101 $
1,
#1736
0,
#1741
b00000000000000000000000001000111 1
b000000000000000000000000001000111 #
b00000000000000000000000001000110 $
1,
#1746
0,
#1751
b00000000000000000000000001001000 1
b000000000000000000000000001001000 #
b00000000000000000000000001000111 $
1,
#1756
0,
#1761
b00000000000000000000000001001001 1
b000000000000000000000000001001001 #
b00000000000000000000000001001000 $
1,
#1766
0,
#1771
b00000000000000000000000001001010 1
b000000000000000000000000001001010 #
b00000000000000000000000001001001 $
1,
#1776
0,
#1781
b00000000000000000000000001001011 1
b000000000000000000000000001001011 #
b00000000000000000000000001001010 $
1,
#1786
0,
#1791
b00000000000000000000000001001100 1
b000000000000000000000000001001100 #
b00000000000000000000000001001011 $
1,
#1796
0,
#1801
b00000000000000000000000001001101 1
b000000000000000000000000001001101 #
b00000000000000000000000001001100 $
1,
#1806
0,
#1811
b00000000000000000000000001001110 1
b000000000000000000000000001001110 #
b00000000000000000000000001001101 $
1,
#1816
0,
#1821
b00000000000000000000000001001111 1
b000000000000000000000000001001111 #
b00000000000000000000000001001110 $
1,
#1826
0,
#1831
b00000000000000000000000001010000 1
b000000000000000000000000001010000 #
b00000000000000000000000001001111 $
1,
#1836
0,
#1841
b00000000000000000000000001010001 1
b000000000000000000000000001010001 #
b00000000000000000000000001010000 $
1,
#1846
0,
#1851
b00000000000000000000000001010010 1
b000000000000000000000000001010010 #
b00000000000000000000000001010001 $
1,
#1856
0,
#1861
b00000000000000000000000001010011 1
b000000000000000000000000001010011 #
b00000000000000000000000001010010 $
1,
#1866
0,
#1871
b00000000000000000000000001010100 1
b000000000000000000000000001010100 #
b00000000000000000000000001010011 $
1,
#1876
0,
#1881
b00000000000000000000000001010101 1
b000000000000000000000000001010101 #
b00000000000000000000000001010100 $
1,
#1886
0,
#1891
b00000000000000000000000001010110 1
b000000000000000000000000001010110 #
b00000000000000000000000001010101 $
1,
#1896
0,
#1901
b00000000000000000000000001010111 1
b000000000000000000000000001010111 #
b00000000000000000000000001010110 $
1,
#1906
0,
#1911
b00000000000000000000000001011000 1
b000000000000000000000000001011000 #
b00000000000000000000000001010111 $
1,
#1916
0,
#1921
b00000000000000000000000001011001 1
b000000000000000000000000001011001 #
b00000000000000000000000001011000 $
1,
#1926
0,
#1931
b00000000000000000000000001011010 1
b000000000000000000000000001011010 #
b00000000000000000000000001011001 $
1,
#1936
0,
#1941
b00000000000000000000000001011011 1
b000000000000000000000000001011011 #
b00000000000000000000000001011010 $
1,
#1946
0,
#1951
b00000000000000000000000001011100 1
b000000000000000000000000001011100 #
b00000000000000000000000001011011 $
1,
#1956
0,
#1961
b00000000000000000000000001011101 1
b000000000000000000000000001011101 #
b00000000000000000000000001011100 $
1,
#1966
0,
#1971
b00000000000000000000000001011110 1
b000000000000000000000000001011110 #
b00000000000000000000000001011101 $
1,
#1976
0,
#1981
b00000000000000000000000001011111 1
b000000000000000000000000001011111 #
b00000000000000000000000001011110 $
1,
#1986
0,
#1991
b00000000000000000000000001100000 1
b000000000000000000000000001100000 #
b00000000000000000000000001011111 $
1,
#1996
0,
#2001
b00000000000000000000000001100001 1
b000000000000000000000000001100001 #
b00000000000000000000000001100000 $
1,
#2006
0,
#2011
b00000000000000000000000001100010 1
b000000000000000000000000001100010 #
b00000000000000000000000001100001 $
1,
#2016
0,
#2021
b00000000000000000000000001100011 1
b000000000000000000000000001100011 #
b00000000000000000000000001100010 $
1,
#2026
0,
#2031
b001 !
b00000000000000000000000000000000 1
b000000000000000000000000001100100 #
b00000000000000000000000001100011 $
1,
1)
#2036
0,
#2041
b001 0
b00000000000000000000000000000001 1
b000000000000000000000000000000001 #
b00000000000000000000000000000000 $
b01 /
1,
0)
#2046
0,
#2051
b00000000000000000000000000000010 1
b000000000000000000000000000000010 #
b00000000000000000000000000000001 $
1,
#2056
0,
#2061
b00000000000000000000000000000011 1
b000000000000000000000000000000011 #
b00000000000000000000000000000010 $
1,
#2066
0,
#2071
b00000000000000000000000000000100 1
b000000000000000000000000000000100 #
b00000000000000000000000000000011 $
1,
#2076
0,
#2081
b00000000000000000000000000000101 1
b000000000000000000000000000000101 #
b00000000000000000000000000000100 $
1,
#2086
0,
#2091
b00000000000000000000000000000110 1
b000000000000000000000000000000110 #
b00000000000000000000000000000101 $
1,
#2096
0,
#2101
b00000000000000000000000000000111 1
b000000000000000000000000000000111 #
b00000000000000000000000000000110 $
1,
#2106
0,
#2111
b00000000000000000000000000001000 1
b000000000000000000000000000001000 #
b00000000000000000000000000000111 $
1,
#2116
0,
#2121
b00000000000000000000000000001001 1
b000000000000000000000000000001001 #
b00000000000000000000000000001000 $
1,
#2126
0,
#2131
b00000000000000000000000000001010 1
b000000000000000000000000000001010 #
b00000000000000000000000000001001 $
1,
#2136
0,
#2141
b00000000000000000000000000001011 1
b000000000000000000000000000001011 #
b00000000000000000000000000001010 $
1,
#2146
0,
#2151
b00000000000000000000000000001100 1
b000000000000000000000000000001100 #
b00000000000000000000000000001011 $
1,
#2156
0,
#2161
b00000000000000000000000000001101 1
b000000000000000000000000000001101 #
b00000000000000000000000000001100 $
1,
#2166
0,
#2171
b00000000000000000000000000001110 1
b000000000000000000000000000001110 #
b00000000000000000000000000001101 $
1,
#2176
0,
#2181
b00000000000000000000000000001111 1
b000000000000000000000000000001111 #
b00000000000000000000000000001110 $
1,
#2186
0,
#2191
b00000000000000000000000000010000 1
b000000000000000000000000000010000 #
b00000000000000000000000000001111 $
1,
#2196
0,
#2201
b00000000000000000000000000010001 1
b000000000000000000000000000010001 #
b00000000000000000000000000010000 $
1,
#2206
0,
#2211
b00000000000000000000000000010010 1
b000000000000000000000000000010010 #
b00000000000000000000000000010001 $
1,
#2216
0,
#2221
b00000000000000000000000000010011 1
b000000000000000000000000000010011 #
b00000000000000000000000000010010 $
1,
#2226
0,
#2231
b00000000000000000000000000010100 1
b000000000000000000000000000010100 #
b00000000000000000000000000010011 $
1,
#2236
0,
#2241
b00000000000000000000000000010101 1
b000000000000000000000000000010101 #
b00000000000000000000000000010100 $
1,
#2246
0,
#2251
b00000000000000000000000000010110 1
b000000000000000000000000000010110 #
b00000000000000000000000000010101 $
1,
#2256
0,
#2261
b00000000000000000000000000010111 1
b000000000000000000000000000010111 #
b00000000000000000000000000010110 $
1,
#2266
0,
#2271
b00000000000000000000000000011000 1
b000000000000000000000000000011000 #
b00000000000000000000000000010111 $
1,
#2276
0,
#2281
b00000000000000000000000000011001 1
b000000000000000000000000000011001 #
b00000000000000000000000000011000 $
1,
#2286
0,
#2291
b00000000000000000000000000011010 1
b000000000000000000000000000011010 #
b00000000000000000000000000011001 $
1,
#2296
0,
#2301
b00000000000000000000000000011011 1
b000000000000000000000000000011011 #
b00000000000000000000000000011010 $
1,
#2306
0,
#2311
b00000000000000000000000000011100 1
b000000000000000000000000000011100 #
b00000000000000000000000000011011 $
1,
#2316
0,
#2321
b00000000000000000000000000011101 1
b000000000000000000000000000011101 #
b00000000000000000000000000011100 $
1,
#2326
0,
#2331
b00000000000000000000000000011110 1
b000000000000000000000000000011110 #
b00000000000000000000000000011101 $
1,
#2336
0,
#2341
b00000000000000000000000000011111 1
b000000000000000000000000000011111 #
b00000000000000000000000000011110 $
1,
#2346
0,
#2351
b00000000000000000000000000100000 1
b000000000000000000000000000100000 #
b00000000000000000000000000011111 $
1,
#2356
0,
#2361
b00000000000000000000000000100001 1
b000000000000000000000000000100001 #
b00000000000000000000000000100000 $
1,
#2366
0,
#2371
b00000000000000000000000000100010 1
b000000000000000000000000000100010 #
b00000000000000000000000000100001 $
1,
#2376
0,
#2381
b00000000000000000000000000100011 1
b000000000000000000000000000100011 #
b00000000000000000000000000100010 $
1,
#2386
0,
#2391
b00000000000000000000000000100100 1
b000000000000000000000000000100100 #
b00000000000000000000000000100011 $
1,
#2396
0,
#2401
b00000000000000000000000000100101 1
b000000000000000000000000000100101 #
b00000000000000000000000000100100 $
1,
#2406
0,
#2411
b00000000000000000000000000100110 1
b000000000000000000000000000100110 #
b00000000000000000000000000100101 $
1,
#2416
0,
#2421
b00000000000000000000000000100111 1
b000000000000000000000000000100111 #
b00000000000000000000000000100110 $
1,
#2426
0,
#2431
b00000000000000000000000000101000 1
b000000000000000000000000000101000 #
b00000000000000000000000000100111 $
1,
#2436
0,
#2441
b00000000000000000000000000101001 1
b000000000000000000000000000101001 #
b00000000000000000000000000101000 $
1,
#2446
0,
#2451
b00000000000000000000000000101010 1
b000000000000000000000000000101010 #
b00000000000000000000000000101001 $
1,
#2456
0,
#2461
b00000000000000000000000000101011 1
b000000000000000000000000000101011 #
b00000000000000000000000000101010 $
1,
#2466
0,
#2471
b00000000000000000000000000101100 1
b000000000000000000000000000101100 #
b00000000000000000000000000101011 $
1,
#2476
0,
#2481
b00000000000000000000000000101101 1
b000000000000000000000000000101101 #
b00000000000000000000000000101100 $
1,
#2486
0,
#2491
b00000000000000000000000000101110 1
b000000000000000000000000000101110 #
b00000000000000000000000000101101 $
1,
#2496
0,
